INFO - 2015-08-08 19:37:59 --> Config Class Initialized
INFO - 2015-08-08 19:37:59 --> Hooks Class Initialized
DEBUG - 2015-08-08 19:37:59 --> UTF-8 Support Enabled
INFO - 2015-08-08 19:37:59 --> Utf8 Class Initialized
INFO - 2015-08-08 19:37:59 --> URI Class Initialized
INFO - 2015-08-08 19:37:59 --> Router Class Initialized
INFO - 2015-08-08 19:37:59 --> Output Class Initialized
INFO - 2015-08-08 19:37:59 --> Security Class Initialized
DEBUG - 2015-08-08 19:37:59 --> Global POST, GET and COOKIE data sanitized
INFO - 2015-08-08 19:37:59 --> Input Class Initialized
INFO - 2015-08-08 19:37:59 --> Language Class Initialized
INFO - 2015-08-08 19:38:00 --> Loader Class Initialized
INFO - 2015-08-08 19:38:00 --> Helper loaded: url_helper
INFO - 2015-08-08 19:38:00 --> Helper loaded: thumb_helper
INFO - 2015-08-08 19:38:00 --> Database Driver Class Initialized
INFO - 2015-08-08 19:38:01 --> Session: Class initialized using 'files' driver.
DEBUG - 2015-08-08 19:38:01 --> Session class already loaded. Second attempt ignored.
INFO - 2015-08-08 19:38:01 --> Email Class Initialized
INFO - 2015-08-08 19:38:01 --> Helper loaded: string_helper
INFO - 2015-08-08 19:38:01 --> Helper loaded: email_helper
INFO - 2015-08-08 19:38:01 --> Helper loaded: language_helper
INFO - 2015-08-08 19:38:01 --> Helper loaded: recaptchalib_helper
INFO - 2015-08-08 19:38:01 --> Helper loaded: googleauthenticator_helper
INFO - 2015-08-08 19:38:01 --> Language file loaded: language/english/aauth_lang.php
DEBUG - 2015-08-08 19:38:01 --> Config file loaded: /opt/lampp/htdocs/team/application/config/aauth.php
INFO - 2015-08-08 19:38:01 --> Database Driver Class Initialized
INFO - 2015-08-08 19:38:01 --> Helper loaded: form_helper
INFO - 2015-08-08 19:38:01 --> Form Validation Class Initialized
INFO - 2015-08-08 19:38:01 --> Parser Class Initialized
INFO - 2015-08-08 19:38:01 --> Controller Class Initialized
DEBUG - 2015-08-08 19:38:01 --> Aauth class already loaded. Second attempt ignored.
INFO - 2015-08-08 19:38:01 --> User Agent Class Initialized
INFO - 2015-08-08 19:38:01 --> Model Class Initialized
INFO - 2015-08-08 19:38:01 --> Model Class Initialized
INFO - 2015-08-08 19:38:01 --> Model Class Initialized
INFO - 2015-08-08 19:38:01 --> Model Class Initialized
INFO - 2015-08-08 19:38:02 --> Model Class Initialized
INFO - 2015-08-08 19:38:02 --> File loaded: /opt/lampp/htdocs/team/application/views/cpanel/layout/header.php
INFO - 2015-08-08 19:38:02 --> File loaded: /opt/lampp/htdocs/team/application/views/cpanel/login.php
INFO - 2015-08-08 19:38:02 --> File loaded: /opt/lampp/htdocs/team/application/views/cpanel/layout/footer.php
INFO - 2015-08-08 19:38:02 --> Final output sent to browser
DEBUG - 2015-08-08 19:38:02 --> Total execution time: 2.6037
INFO - 2015-08-08 19:38:13 --> Config Class Initialized
INFO - 2015-08-08 19:38:13 --> Hooks Class Initialized
DEBUG - 2015-08-08 19:38:13 --> UTF-8 Support Enabled
INFO - 2015-08-08 19:38:13 --> Utf8 Class Initialized
INFO - 2015-08-08 19:38:13 --> URI Class Initialized
INFO - 2015-08-08 19:38:13 --> Router Class Initialized
INFO - 2015-08-08 19:38:13 --> Output Class Initialized
INFO - 2015-08-08 19:38:13 --> Security Class Initialized
DEBUG - 2015-08-08 19:38:13 --> Global POST, GET and COOKIE data sanitized
INFO - 2015-08-08 19:38:13 --> Input Class Initialized
INFO - 2015-08-08 19:38:13 --> Language Class Initialized
INFO - 2015-08-08 19:38:13 --> Loader Class Initialized
INFO - 2015-08-08 19:38:13 --> Helper loaded: url_helper
INFO - 2015-08-08 19:38:13 --> Helper loaded: thumb_helper
INFO - 2015-08-08 19:38:13 --> Database Driver Class Initialized
INFO - 2015-08-08 19:38:13 --> Session: Class initialized using 'files' driver.
DEBUG - 2015-08-08 19:38:13 --> Session class already loaded. Second attempt ignored.
INFO - 2015-08-08 19:38:13 --> Email Class Initialized
INFO - 2015-08-08 19:38:13 --> Helper loaded: string_helper
INFO - 2015-08-08 19:38:13 --> Helper loaded: email_helper
INFO - 2015-08-08 19:38:13 --> Helper loaded: language_helper
INFO - 2015-08-08 19:38:13 --> Helper loaded: recaptchalib_helper
INFO - 2015-08-08 19:38:13 --> Helper loaded: googleauthenticator_helper
INFO - 2015-08-08 19:38:13 --> Language file loaded: language/english/aauth_lang.php
DEBUG - 2015-08-08 19:38:13 --> Config file loaded: /opt/lampp/htdocs/team/application/config/aauth.php
INFO - 2015-08-08 19:38:13 --> Database Driver Class Initialized
INFO - 2015-08-08 19:38:13 --> Helper loaded: form_helper
INFO - 2015-08-08 19:38:13 --> Form Validation Class Initialized
INFO - 2015-08-08 19:38:13 --> Parser Class Initialized
INFO - 2015-08-08 19:38:13 --> Controller Class Initialized
DEBUG - 2015-08-08 19:38:13 --> Aauth class already loaded. Second attempt ignored.
INFO - 2015-08-08 19:38:13 --> User Agent Class Initialized
INFO - 2015-08-08 19:38:13 --> Model Class Initialized
INFO - 2015-08-08 19:38:13 --> Model Class Initialized
INFO - 2015-08-08 19:38:13 --> Model Class Initialized
INFO - 2015-08-08 19:38:13 --> Model Class Initialized
INFO - 2015-08-08 19:38:13 --> Model Class Initialized
INFO - 2015-08-08 19:38:13 --> Language file loaded: language/english/form_validation_lang.php
INFO - 2015-08-08 19:38:14 --> Config Class Initialized
INFO - 2015-08-08 19:38:14 --> Hooks Class Initialized
DEBUG - 2015-08-08 19:38:14 --> UTF-8 Support Enabled
INFO - 2015-08-08 19:38:14 --> Utf8 Class Initialized
INFO - 2015-08-08 19:38:14 --> URI Class Initialized
INFO - 2015-08-08 19:38:14 --> Router Class Initialized
INFO - 2015-08-08 19:38:14 --> Output Class Initialized
INFO - 2015-08-08 19:38:14 --> Security Class Initialized
DEBUG - 2015-08-08 19:38:14 --> Global POST, GET and COOKIE data sanitized
INFO - 2015-08-08 19:38:14 --> Input Class Initialized
INFO - 2015-08-08 19:38:14 --> Language Class Initialized
INFO - 2015-08-08 19:38:14 --> Loader Class Initialized
INFO - 2015-08-08 19:38:14 --> Helper loaded: url_helper
INFO - 2015-08-08 19:38:14 --> Helper loaded: thumb_helper
INFO - 2015-08-08 19:38:14 --> Database Driver Class Initialized
INFO - 2015-08-08 19:38:14 --> Session: Class initialized using 'files' driver.
DEBUG - 2015-08-08 19:38:14 --> Session class already loaded. Second attempt ignored.
INFO - 2015-08-08 19:38:14 --> Email Class Initialized
INFO - 2015-08-08 19:38:14 --> Helper loaded: string_helper
INFO - 2015-08-08 19:38:14 --> Helper loaded: email_helper
INFO - 2015-08-08 19:38:14 --> Helper loaded: language_helper
INFO - 2015-08-08 19:38:14 --> Helper loaded: recaptchalib_helper
INFO - 2015-08-08 19:38:14 --> Helper loaded: googleauthenticator_helper
INFO - 2015-08-08 19:38:14 --> Language file loaded: language/english/aauth_lang.php
DEBUG - 2015-08-08 19:38:14 --> Config file loaded: /opt/lampp/htdocs/team/application/config/aauth.php
INFO - 2015-08-08 19:38:14 --> Database Driver Class Initialized
INFO - 2015-08-08 19:38:14 --> Helper loaded: form_helper
INFO - 2015-08-08 19:38:14 --> Form Validation Class Initialized
INFO - 2015-08-08 19:38:14 --> Parser Class Initialized
INFO - 2015-08-08 19:38:14 --> Controller Class Initialized
DEBUG - 2015-08-08 19:38:14 --> Aauth class already loaded. Second attempt ignored.
INFO - 2015-08-08 19:38:14 --> User Agent Class Initialized
INFO - 2015-08-08 19:38:14 --> Model Class Initialized
INFO - 2015-08-08 19:38:14 --> Model Class Initialized
INFO - 2015-08-08 19:38:14 --> Model Class Initialized
INFO - 2015-08-08 19:38:14 --> Model Class Initialized
INFO - 2015-08-08 19:38:14 --> Model Class Initialized
INFO - 2015-08-08 19:38:14 --> File loaded: /opt/lampp/htdocs/team/application/views/cpanel/layout/header.php
INFO - 2015-08-08 19:38:14 --> File loaded: /opt/lampp/htdocs/team/application/views/cpanel/dashboard.php
INFO - 2015-08-08 19:38:14 --> File loaded: /opt/lampp/htdocs/team/application/views/cpanel/layout/footer.php
INFO - 2015-08-08 19:38:14 --> Final output sent to browser
DEBUG - 2015-08-08 19:38:14 --> Total execution time: 0.2521
INFO - 2015-08-08 19:38:23 --> Config Class Initialized
INFO - 2015-08-08 19:38:23 --> Hooks Class Initialized
DEBUG - 2015-08-08 19:38:23 --> UTF-8 Support Enabled
INFO - 2015-08-08 19:38:23 --> Utf8 Class Initialized
INFO - 2015-08-08 19:38:23 --> URI Class Initialized
INFO - 2015-08-08 19:38:23 --> Router Class Initialized
INFO - 2015-08-08 19:38:23 --> Output Class Initialized
INFO - 2015-08-08 19:38:23 --> Security Class Initialized
DEBUG - 2015-08-08 19:38:23 --> Global POST, GET and COOKIE data sanitized
INFO - 2015-08-08 19:38:23 --> Input Class Initialized
INFO - 2015-08-08 19:38:23 --> Language Class Initialized
INFO - 2015-08-08 19:38:23 --> Loader Class Initialized
INFO - 2015-08-08 19:38:23 --> Helper loaded: url_helper
INFO - 2015-08-08 19:38:23 --> Helper loaded: thumb_helper
INFO - 2015-08-08 19:38:23 --> Database Driver Class Initialized
INFO - 2015-08-08 19:38:23 --> Session: Class initialized using 'files' driver.
DEBUG - 2015-08-08 19:38:23 --> Session class already loaded. Second attempt ignored.
INFO - 2015-08-08 19:38:23 --> Email Class Initialized
INFO - 2015-08-08 19:38:23 --> Helper loaded: string_helper
INFO - 2015-08-08 19:38:23 --> Helper loaded: email_helper
INFO - 2015-08-08 19:38:23 --> Helper loaded: language_helper
INFO - 2015-08-08 19:38:23 --> Helper loaded: recaptchalib_helper
INFO - 2015-08-08 19:38:23 --> Helper loaded: googleauthenticator_helper
INFO - 2015-08-08 19:38:23 --> Language file loaded: language/english/aauth_lang.php
DEBUG - 2015-08-08 19:38:23 --> Config file loaded: /opt/lampp/htdocs/team/application/config/aauth.php
INFO - 2015-08-08 19:38:23 --> Database Driver Class Initialized
INFO - 2015-08-08 19:38:23 --> Helper loaded: form_helper
INFO - 2015-08-08 19:38:23 --> Form Validation Class Initialized
INFO - 2015-08-08 19:38:23 --> Parser Class Initialized
INFO - 2015-08-08 19:38:23 --> Controller Class Initialized
INFO - 2015-08-08 19:38:23 --> File loaded: /opt/lampp/htdocs/team/application/views/layout/header.php
INFO - 2015-08-08 19:38:23 --> File loaded: /opt/lampp/htdocs/team/application/views/errors/html/custom.php
INFO - 2015-08-08 19:38:23 --> File loaded: /opt/lampp/htdocs/team/application/views/layout/footer.php
INFO - 2015-08-08 19:38:23 --> Final output sent to browser
DEBUG - 2015-08-08 19:38:23 --> Total execution time: 0.1142
INFO - 2015-08-08 19:38:24 --> Config Class Initialized
INFO - 2015-08-08 19:38:24 --> Hooks Class Initialized
DEBUG - 2015-08-08 19:38:24 --> UTF-8 Support Enabled
INFO - 2015-08-08 19:38:24 --> Utf8 Class Initialized
INFO - 2015-08-08 19:38:24 --> URI Class Initialized
INFO - 2015-08-08 19:38:24 --> Router Class Initialized
INFO - 2015-08-08 19:38:24 --> Output Class Initialized
INFO - 2015-08-08 19:38:24 --> Security Class Initialized
DEBUG - 2015-08-08 19:38:24 --> Global POST, GET and COOKIE data sanitized
INFO - 2015-08-08 19:38:24 --> Input Class Initialized
INFO - 2015-08-08 19:38:24 --> Language Class Initialized
INFO - 2015-08-08 19:38:24 --> Loader Class Initialized
INFO - 2015-08-08 19:38:24 --> Helper loaded: url_helper
INFO - 2015-08-08 19:38:24 --> Helper loaded: thumb_helper
INFO - 2015-08-08 19:38:24 --> Database Driver Class Initialized
INFO - 2015-08-08 19:38:24 --> Session: Class initialized using 'files' driver.
DEBUG - 2015-08-08 19:38:24 --> Session class already loaded. Second attempt ignored.
INFO - 2015-08-08 19:38:24 --> Email Class Initialized
INFO - 2015-08-08 19:38:24 --> Helper loaded: string_helper
INFO - 2015-08-08 19:38:24 --> Helper loaded: email_helper
INFO - 2015-08-08 19:38:24 --> Helper loaded: language_helper
INFO - 2015-08-08 19:38:24 --> Helper loaded: recaptchalib_helper
INFO - 2015-08-08 19:38:24 --> Helper loaded: googleauthenticator_helper
INFO - 2015-08-08 19:38:24 --> Language file loaded: language/english/aauth_lang.php
DEBUG - 2015-08-08 19:38:24 --> Config file loaded: /opt/lampp/htdocs/team/application/config/aauth.php
INFO - 2015-08-08 19:38:24 --> Database Driver Class Initialized
INFO - 2015-08-08 19:38:24 --> Helper loaded: form_helper
INFO - 2015-08-08 19:38:24 --> Form Validation Class Initialized
INFO - 2015-08-08 19:38:24 --> Parser Class Initialized
INFO - 2015-08-08 19:38:24 --> Controller Class Initialized
INFO - 2015-08-08 19:38:24 --> File loaded: /opt/lampp/htdocs/team/application/views/layout/header.php
INFO - 2015-08-08 19:38:24 --> File loaded: /opt/lampp/htdocs/team/application/views/errors/html/custom.php
INFO - 2015-08-08 19:38:24 --> File loaded: /opt/lampp/htdocs/team/application/views/layout/footer.php
INFO - 2015-08-08 19:38:24 --> Final output sent to browser
DEBUG - 2015-08-08 19:38:24 --> Total execution time: 0.0435
INFO - 2015-08-08 19:38:24 --> Config Class Initialized
INFO - 2015-08-08 19:38:24 --> Hooks Class Initialized
INFO - 2015-08-08 19:38:24 --> Config Class Initialized
INFO - 2015-08-08 19:38:24 --> Hooks Class Initialized
DEBUG - 2015-08-08 19:38:24 --> UTF-8 Support Enabled
INFO - 2015-08-08 19:38:24 --> Utf8 Class Initialized
INFO - 2015-08-08 19:38:24 --> URI Class Initialized
DEBUG - 2015-08-08 19:38:24 --> UTF-8 Support Enabled
INFO - 2015-08-08 19:38:24 --> Utf8 Class Initialized
INFO - 2015-08-08 19:38:24 --> URI Class Initialized
INFO - 2015-08-08 19:38:24 --> Router Class Initialized
INFO - 2015-08-08 19:38:24 --> Output Class Initialized
INFO - 2015-08-08 19:38:24 --> Router Class Initialized
INFO - 2015-08-08 19:38:24 --> Security Class Initialized
INFO - 2015-08-08 19:38:24 --> Output Class Initialized
DEBUG - 2015-08-08 19:38:24 --> Global POST, GET and COOKIE data sanitized
INFO - 2015-08-08 19:38:24 --> Input Class Initialized
INFO - 2015-08-08 19:38:24 --> Language Class Initialized
INFO - 2015-08-08 19:38:24 --> Security Class Initialized
DEBUG - 2015-08-08 19:38:24 --> Global POST, GET and COOKIE data sanitized
INFO - 2015-08-08 19:38:24 --> Input Class Initialized
INFO - 2015-08-08 19:38:24 --> Loader Class Initialized
INFO - 2015-08-08 19:38:24 --> Language Class Initialized
INFO - 2015-08-08 19:38:24 --> Helper loaded: url_helper
INFO - 2015-08-08 19:38:24 --> Helper loaded: thumb_helper
INFO - 2015-08-08 19:38:24 --> Loader Class Initialized
INFO - 2015-08-08 19:38:24 --> Helper loaded: url_helper
INFO - 2015-08-08 19:38:24 --> Helper loaded: thumb_helper
INFO - 2015-08-08 19:38:24 --> Database Driver Class Initialized
INFO - 2015-08-08 19:38:24 --> Config Class Initialized
INFO - 2015-08-08 19:38:24 --> Hooks Class Initialized
DEBUG - 2015-08-08 19:38:24 --> UTF-8 Support Enabled
INFO - 2015-08-08 19:38:24 --> Utf8 Class Initialized
INFO - 2015-08-08 19:38:24 --> Session: Class initialized using 'files' driver.
INFO - 2015-08-08 19:38:24 --> URI Class Initialized
INFO - 2015-08-08 19:38:24 --> Router Class Initialized
INFO - 2015-08-08 19:38:24 --> Config Class Initialized
INFO - 2015-08-08 19:38:24 --> Hooks Class Initialized
DEBUG - 2015-08-08 19:38:24 --> UTF-8 Support Enabled
INFO - 2015-08-08 19:38:24 --> Utf8 Class Initialized
INFO - 2015-08-08 19:38:24 --> URI Class Initialized
DEBUG - 2015-08-08 19:38:24 --> Session class already loaded. Second attempt ignored.
INFO - 2015-08-08 19:38:24 --> Email Class Initialized
INFO - 2015-08-08 19:38:24 --> Helper loaded: string_helper
INFO - 2015-08-08 19:38:24 --> Helper loaded: email_helper
INFO - 2015-08-08 19:38:24 --> Helper loaded: language_helper
INFO - 2015-08-08 19:38:24 --> Helper loaded: recaptchalib_helper
INFO - 2015-08-08 19:38:24 --> Helper loaded: googleauthenticator_helper
INFO - 2015-08-08 19:38:24 --> Language file loaded: language/english/aauth_lang.php
DEBUG - 2015-08-08 19:38:24 --> Config file loaded: /opt/lampp/htdocs/team/application/config/aauth.php
INFO - 2015-08-08 19:38:24 --> Database Driver Class Initialized
INFO - 2015-08-08 19:38:24 --> Output Class Initialized
INFO - 2015-08-08 19:38:24 --> Router Class Initialized
INFO - 2015-08-08 19:38:24 --> Output Class Initialized
INFO - 2015-08-08 19:38:24 --> Security Class Initialized
INFO - 2015-08-08 19:38:24 --> Helper loaded: form_helper
INFO - 2015-08-08 19:38:24 --> Form Validation Class Initialized
INFO - 2015-08-08 19:38:24 --> Parser Class Initialized
INFO - 2015-08-08 19:38:24 --> Controller Class Initialized
DEBUG - 2015-08-08 19:38:24 --> Global POST, GET and COOKIE data sanitized
INFO - 2015-08-08 19:38:24 --> Input Class Initialized
INFO - 2015-08-08 19:38:24 --> Language Class Initialized
INFO - 2015-08-08 19:38:24 --> Security Class Initialized
DEBUG - 2015-08-08 19:38:24 --> Global POST, GET and COOKIE data sanitized
INFO - 2015-08-08 19:38:24 --> Input Class Initialized
INFO - 2015-08-08 19:38:24 --> Database Driver Class Initialized
INFO - 2015-08-08 19:38:24 --> Loader Class Initialized
INFO - 2015-08-08 19:38:24 --> Helper loaded: url_helper
INFO - 2015-08-08 19:38:24 --> Helper loaded: thumb_helper
INFO - 2015-08-08 19:38:24 --> Language Class Initialized
INFO - 2015-08-08 19:38:24 --> Loader Class Initialized
INFO - 2015-08-08 19:38:24 --> File loaded: /opt/lampp/htdocs/team/application/views/layout/header.php
INFO - 2015-08-08 19:38:24 --> File loaded: /opt/lampp/htdocs/team/application/views/errors/html/custom.php
INFO - 2015-08-08 19:38:24 --> File loaded: /opt/lampp/htdocs/team/application/views/layout/footer.php
INFO - 2015-08-08 19:38:24 --> Helper loaded: url_helper
INFO - 2015-08-08 19:38:24 --> Helper loaded: thumb_helper
INFO - 2015-08-08 19:38:24 --> Final output sent to browser
DEBUG - 2015-08-08 19:38:24 --> Total execution time: 0.0515
INFO - 2015-08-08 19:38:24 --> Session: Class initialized using 'files' driver.
DEBUG - 2015-08-08 19:38:24 --> Session class already loaded. Second attempt ignored.
INFO - 2015-08-08 19:38:24 --> Database Driver Class Initialized
INFO - 2015-08-08 19:38:24 --> Email Class Initialized
INFO - 2015-08-08 19:38:24 --> Helper loaded: string_helper
INFO - 2015-08-08 19:38:24 --> Helper loaded: email_helper
INFO - 2015-08-08 19:38:24 --> Helper loaded: language_helper
INFO - 2015-08-08 19:38:24 --> Helper loaded: recaptchalib_helper
INFO - 2015-08-08 19:38:24 --> Database Driver Class Initialized
INFO - 2015-08-08 19:38:24 --> Helper loaded: googleauthenticator_helper
INFO - 2015-08-08 19:38:24 --> Language file loaded: language/english/aauth_lang.php
DEBUG - 2015-08-08 19:38:24 --> Config file loaded: /opt/lampp/htdocs/team/application/config/aauth.php
INFO - 2015-08-08 19:38:24 --> Database Driver Class Initialized
INFO - 2015-08-08 19:38:24 --> Helper loaded: form_helper
INFO - 2015-08-08 19:38:24 --> Form Validation Class Initialized
INFO - 2015-08-08 19:38:24 --> Parser Class Initialized
INFO - 2015-08-08 19:38:24 --> Controller Class Initialized
INFO - 2015-08-08 19:38:24 --> File loaded: /opt/lampp/htdocs/team/application/views/layout/header.php
INFO - 2015-08-08 19:38:24 --> File loaded: /opt/lampp/htdocs/team/application/views/errors/html/custom.php
INFO - 2015-08-08 19:38:24 --> File loaded: /opt/lampp/htdocs/team/application/views/layout/footer.php
INFO - 2015-08-08 19:38:24 --> Final output sent to browser
DEBUG - 2015-08-08 19:38:24 --> Total execution time: 0.0765
INFO - 2015-08-08 19:38:24 --> Session: Class initialized using 'files' driver.
DEBUG - 2015-08-08 19:38:24 --> Session class already loaded. Second attempt ignored.
INFO - 2015-08-08 19:38:24 --> Email Class Initialized
INFO - 2015-08-08 19:38:24 --> Helper loaded: string_helper
INFO - 2015-08-08 19:38:24 --> Helper loaded: email_helper
INFO - 2015-08-08 19:38:24 --> Helper loaded: language_helper
INFO - 2015-08-08 19:38:24 --> Helper loaded: recaptchalib_helper
INFO - 2015-08-08 19:38:24 --> Helper loaded: googleauthenticator_helper
INFO - 2015-08-08 19:38:24 --> Language file loaded: language/english/aauth_lang.php
DEBUG - 2015-08-08 19:38:24 --> Config file loaded: /opt/lampp/htdocs/team/application/config/aauth.php
INFO - 2015-08-08 19:38:24 --> Database Driver Class Initialized
INFO - 2015-08-08 19:38:24 --> Helper loaded: form_helper
INFO - 2015-08-08 19:38:24 --> Form Validation Class Initialized
INFO - 2015-08-08 19:38:24 --> Parser Class Initialized
INFO - 2015-08-08 19:38:24 --> Controller Class Initialized
INFO - 2015-08-08 19:38:24 --> File loaded: /opt/lampp/htdocs/team/application/views/layout/header.php
INFO - 2015-08-08 19:38:24 --> File loaded: /opt/lampp/htdocs/team/application/views/errors/html/custom.php
INFO - 2015-08-08 19:38:24 --> File loaded: /opt/lampp/htdocs/team/application/views/layout/footer.php
INFO - 2015-08-08 19:38:24 --> Final output sent to browser
DEBUG - 2015-08-08 19:38:24 --> Total execution time: 0.0814
INFO - 2015-08-08 19:38:24 --> Session: Class initialized using 'files' driver.
DEBUG - 2015-08-08 19:38:24 --> Session class already loaded. Second attempt ignored.
INFO - 2015-08-08 19:38:24 --> Email Class Initialized
INFO - 2015-08-08 19:38:24 --> Helper loaded: string_helper
INFO - 2015-08-08 19:38:24 --> Helper loaded: email_helper
INFO - 2015-08-08 19:38:24 --> Helper loaded: language_helper
INFO - 2015-08-08 19:38:24 --> Helper loaded: recaptchalib_helper
INFO - 2015-08-08 19:38:24 --> Helper loaded: googleauthenticator_helper
INFO - 2015-08-08 19:38:24 --> Language file loaded: language/english/aauth_lang.php
DEBUG - 2015-08-08 19:38:24 --> Config file loaded: /opt/lampp/htdocs/team/application/config/aauth.php
INFO - 2015-08-08 19:38:24 --> Database Driver Class Initialized
INFO - 2015-08-08 19:38:24 --> Helper loaded: form_helper
INFO - 2015-08-08 19:38:24 --> Form Validation Class Initialized
INFO - 2015-08-08 19:38:24 --> Parser Class Initialized
INFO - 2015-08-08 19:38:24 --> Controller Class Initialized
INFO - 2015-08-08 19:38:24 --> File loaded: /opt/lampp/htdocs/team/application/views/layout/header.php
INFO - 2015-08-08 19:38:24 --> File loaded: /opt/lampp/htdocs/team/application/views/errors/html/custom.php
INFO - 2015-08-08 19:38:24 --> File loaded: /opt/lampp/htdocs/team/application/views/layout/footer.php
INFO - 2015-08-08 19:38:24 --> Final output sent to browser
DEBUG - 2015-08-08 19:38:24 --> Total execution time: 0.1082
INFO - 2015-08-08 19:38:24 --> Config Class Initialized
INFO - 2015-08-08 19:38:24 --> Hooks Class Initialized
DEBUG - 2015-08-08 19:38:24 --> UTF-8 Support Enabled
INFO - 2015-08-08 19:38:24 --> Utf8 Class Initialized
INFO - 2015-08-08 19:38:24 --> URI Class Initialized
INFO - 2015-08-08 19:38:24 --> Router Class Initialized
INFO - 2015-08-08 19:38:24 --> Output Class Initialized
INFO - 2015-08-08 19:38:24 --> Security Class Initialized
DEBUG - 2015-08-08 19:38:24 --> Global POST, GET and COOKIE data sanitized
INFO - 2015-08-08 19:38:24 --> Input Class Initialized
INFO - 2015-08-08 19:38:24 --> Language Class Initialized
INFO - 2015-08-08 19:38:24 --> Loader Class Initialized
INFO - 2015-08-08 19:38:24 --> Helper loaded: url_helper
INFO - 2015-08-08 19:38:24 --> Helper loaded: thumb_helper
INFO - 2015-08-08 19:38:24 --> Database Driver Class Initialized
INFO - 2015-08-08 19:38:24 --> Session: Class initialized using 'files' driver.
DEBUG - 2015-08-08 19:38:24 --> Session class already loaded. Second attempt ignored.
INFO - 2015-08-08 19:38:24 --> Email Class Initialized
INFO - 2015-08-08 19:38:24 --> Helper loaded: string_helper
INFO - 2015-08-08 19:38:24 --> Helper loaded: email_helper
INFO - 2015-08-08 19:38:24 --> Helper loaded: language_helper
INFO - 2015-08-08 19:38:24 --> Helper loaded: recaptchalib_helper
INFO - 2015-08-08 19:38:24 --> Helper loaded: googleauthenticator_helper
INFO - 2015-08-08 19:38:24 --> Language file loaded: language/english/aauth_lang.php
DEBUG - 2015-08-08 19:38:24 --> Config file loaded: /opt/lampp/htdocs/team/application/config/aauth.php
INFO - 2015-08-08 19:38:24 --> Database Driver Class Initialized
INFO - 2015-08-08 19:38:24 --> Helper loaded: form_helper
INFO - 2015-08-08 19:38:24 --> Form Validation Class Initialized
INFO - 2015-08-08 19:38:24 --> Parser Class Initialized
INFO - 2015-08-08 19:38:24 --> Controller Class Initialized
INFO - 2015-08-08 19:38:24 --> File loaded: /opt/lampp/htdocs/team/application/views/layout/header.php
INFO - 2015-08-08 19:38:24 --> File loaded: /opt/lampp/htdocs/team/application/views/errors/html/custom.php
INFO - 2015-08-08 19:38:24 --> File loaded: /opt/lampp/htdocs/team/application/views/layout/footer.php
INFO - 2015-08-08 19:38:24 --> Final output sent to browser
DEBUG - 2015-08-08 19:38:24 --> Total execution time: 0.0427
INFO - 2015-08-08 19:38:28 --> Config Class Initialized
INFO - 2015-08-08 19:38:28 --> Hooks Class Initialized
DEBUG - 2015-08-08 19:38:28 --> UTF-8 Support Enabled
INFO - 2015-08-08 19:38:28 --> Utf8 Class Initialized
INFO - 2015-08-08 19:38:28 --> URI Class Initialized
DEBUG - 2015-08-08 19:38:28 --> No URI present. Default controller set.
INFO - 2015-08-08 19:38:28 --> Router Class Initialized
INFO - 2015-08-08 19:38:28 --> Output Class Initialized
INFO - 2015-08-08 19:38:28 --> Security Class Initialized
DEBUG - 2015-08-08 19:38:28 --> Global POST, GET and COOKIE data sanitized
INFO - 2015-08-08 19:38:28 --> Input Class Initialized
INFO - 2015-08-08 19:38:28 --> Language Class Initialized
INFO - 2015-08-08 19:38:28 --> Loader Class Initialized
INFO - 2015-08-08 19:38:28 --> Helper loaded: url_helper
INFO - 2015-08-08 19:38:28 --> Helper loaded: thumb_helper
INFO - 2015-08-08 19:38:28 --> Database Driver Class Initialized
INFO - 2015-08-08 19:38:28 --> Session: Class initialized using 'files' driver.
DEBUG - 2015-08-08 19:38:28 --> Session class already loaded. Second attempt ignored.
INFO - 2015-08-08 19:38:28 --> Email Class Initialized
INFO - 2015-08-08 19:38:28 --> Helper loaded: string_helper
INFO - 2015-08-08 19:38:28 --> Helper loaded: email_helper
INFO - 2015-08-08 19:38:28 --> Helper loaded: language_helper
INFO - 2015-08-08 19:38:28 --> Helper loaded: recaptchalib_helper
INFO - 2015-08-08 19:38:28 --> Helper loaded: googleauthenticator_helper
INFO - 2015-08-08 19:38:28 --> Language file loaded: language/english/aauth_lang.php
DEBUG - 2015-08-08 19:38:28 --> Config file loaded: /opt/lampp/htdocs/team/application/config/aauth.php
INFO - 2015-08-08 19:38:28 --> Database Driver Class Initialized
INFO - 2015-08-08 19:38:28 --> Helper loaded: form_helper
INFO - 2015-08-08 19:38:28 --> Form Validation Class Initialized
INFO - 2015-08-08 19:38:28 --> Parser Class Initialized
INFO - 2015-08-08 19:38:28 --> Controller Class Initialized
INFO - 2015-08-08 19:38:28 --> Model Class Initialized
INFO - 2015-08-08 19:38:28 --> Model Class Initialized
INFO - 2015-08-08 19:38:28 --> Model Class Initialized
INFO - 2015-08-08 19:38:28 --> Model Class Initialized
INFO - 2015-08-08 19:38:28 --> Model Class Initialized
DEBUG - 2015-08-08 19:38:28 --> Aauth class already loaded. Second attempt ignored.
INFO - 2015-08-08 19:38:28 --> User Agent Class Initialized
INFO - 2015-08-08 19:38:28 --> Language file loaded: language/english/pagination_lang.php
INFO - 2015-08-08 19:38:28 --> Pagination Class Initialized
INFO - 2015-08-08 19:38:28 --> File loaded: /opt/lampp/htdocs/team/application/views/layout/header.php
INFO - 2015-08-08 19:38:28 --> File loaded: /opt/lampp/htdocs/team/application/views/index.php
INFO - 2015-08-08 19:38:28 --> File loaded: /opt/lampp/htdocs/team/application/views/layout/footer.php
INFO - 2015-08-08 19:38:28 --> Final output sent to browser
DEBUG - 2015-08-08 19:38:28 --> Total execution time: 0.2676
INFO - 2015-08-08 19:38:28 --> Config Class Initialized
INFO - 2015-08-08 19:38:28 --> Hooks Class Initialized
DEBUG - 2015-08-08 19:38:28 --> UTF-8 Support Enabled
INFO - 2015-08-08 19:38:28 --> Utf8 Class Initialized
INFO - 2015-08-08 19:38:28 --> URI Class Initialized
INFO - 2015-08-08 19:38:28 --> Router Class Initialized
INFO - 2015-08-08 19:38:28 --> Output Class Initialized
INFO - 2015-08-08 19:38:28 --> Security Class Initialized
DEBUG - 2015-08-08 19:38:28 --> Global POST, GET and COOKIE data sanitized
INFO - 2015-08-08 19:38:28 --> Input Class Initialized
INFO - 2015-08-08 19:38:28 --> Language Class Initialized
INFO - 2015-08-08 19:38:28 --> Loader Class Initialized
INFO - 2015-08-08 19:38:28 --> Helper loaded: url_helper
INFO - 2015-08-08 19:38:28 --> Helper loaded: thumb_helper
INFO - 2015-08-08 19:38:28 --> Database Driver Class Initialized
INFO - 2015-08-08 19:38:28 --> Session: Class initialized using 'files' driver.
DEBUG - 2015-08-08 19:38:28 --> Session class already loaded. Second attempt ignored.
INFO - 2015-08-08 19:38:28 --> Email Class Initialized
INFO - 2015-08-08 19:38:28 --> Helper loaded: string_helper
INFO - 2015-08-08 19:38:28 --> Helper loaded: email_helper
INFO - 2015-08-08 19:38:28 --> Helper loaded: language_helper
INFO - 2015-08-08 19:38:28 --> Helper loaded: recaptchalib_helper
INFO - 2015-08-08 19:38:28 --> Helper loaded: googleauthenticator_helper
INFO - 2015-08-08 19:38:28 --> Language file loaded: language/english/aauth_lang.php
DEBUG - 2015-08-08 19:38:28 --> Config file loaded: /opt/lampp/htdocs/team/application/config/aauth.php
INFO - 2015-08-08 19:38:28 --> Database Driver Class Initialized
INFO - 2015-08-08 19:38:28 --> Helper loaded: form_helper
INFO - 2015-08-08 19:38:28 --> Form Validation Class Initialized
INFO - 2015-08-08 19:38:28 --> Parser Class Initialized
INFO - 2015-08-08 19:38:28 --> Controller Class Initialized
INFO - 2015-08-08 19:38:28 --> File loaded: /opt/lampp/htdocs/team/application/views/layout/header.php
INFO - 2015-08-08 19:38:28 --> File loaded: /opt/lampp/htdocs/team/application/views/errors/html/custom.php
INFO - 2015-08-08 19:38:28 --> File loaded: /opt/lampp/htdocs/team/application/views/layout/footer.php
INFO - 2015-08-08 19:38:28 --> Final output sent to browser
DEBUG - 2015-08-08 19:38:28 --> Total execution time: 0.0543
INFO - 2015-08-08 19:38:28 --> Config Class Initialized
INFO - 2015-08-08 19:38:28 --> Hooks Class Initialized
DEBUG - 2015-08-08 19:38:28 --> UTF-8 Support Enabled
INFO - 2015-08-08 19:38:28 --> Utf8 Class Initialized
INFO - 2015-08-08 19:38:28 --> URI Class Initialized
INFO - 2015-08-08 19:38:28 --> Config Class Initialized
INFO - 2015-08-08 19:38:28 --> Hooks Class Initialized
INFO - 2015-08-08 19:38:28 --> Router Class Initialized
DEBUG - 2015-08-08 19:38:28 --> UTF-8 Support Enabled
INFO - 2015-08-08 19:38:28 --> Utf8 Class Initialized
INFO - 2015-08-08 19:38:28 --> Output Class Initialized
INFO - 2015-08-08 19:38:28 --> URI Class Initialized
INFO - 2015-08-08 19:38:28 --> Security Class Initialized
DEBUG - 2015-08-08 19:38:28 --> Global POST, GET and COOKIE data sanitized
INFO - 2015-08-08 19:38:28 --> Input Class Initialized
INFO - 2015-08-08 19:38:28 --> Language Class Initialized
INFO - 2015-08-08 19:38:28 --> Loader Class Initialized
INFO - 2015-08-08 19:38:28 --> Helper loaded: url_helper
INFO - 2015-08-08 19:38:28 --> Helper loaded: thumb_helper
INFO - 2015-08-08 19:38:28 --> Config Class Initialized
INFO - 2015-08-08 19:38:28 --> Hooks Class Initialized
DEBUG - 2015-08-08 19:38:28 --> UTF-8 Support Enabled
INFO - 2015-08-08 19:38:28 --> Utf8 Class Initialized
INFO - 2015-08-08 19:38:28 --> Config Class Initialized
INFO - 2015-08-08 19:38:28 --> Hooks Class Initialized
INFO - 2015-08-08 19:38:28 --> URI Class Initialized
INFO - 2015-08-08 19:38:28 --> Database Driver Class Initialized
INFO - 2015-08-08 19:38:28 --> Router Class Initialized
INFO - 2015-08-08 19:38:28 --> Output Class Initialized
INFO - 2015-08-08 19:38:28 --> Session: Class initialized using 'files' driver.
INFO - 2015-08-08 19:38:28 --> Router Class Initialized
DEBUG - 2015-08-08 19:38:28 --> Session class already loaded. Second attempt ignored.
INFO - 2015-08-08 19:38:28 --> Output Class Initialized
INFO - 2015-08-08 19:38:28 --> Security Class Initialized
DEBUG - 2015-08-08 19:38:28 --> Global POST, GET and COOKIE data sanitized
INFO - 2015-08-08 19:38:28 --> Input Class Initialized
INFO - 2015-08-08 19:38:28 --> Email Class Initialized
INFO - 2015-08-08 19:38:28 --> Language Class Initialized
INFO - 2015-08-08 19:38:28 --> Helper loaded: string_helper
INFO - 2015-08-08 19:38:28 --> Helper loaded: email_helper
INFO - 2015-08-08 19:38:28 --> Helper loaded: language_helper
INFO - 2015-08-08 19:38:28 --> Helper loaded: recaptchalib_helper
INFO - 2015-08-08 19:38:28 --> Helper loaded: googleauthenticator_helper
INFO - 2015-08-08 19:38:28 --> Language file loaded: language/english/aauth_lang.php
DEBUG - 2015-08-08 19:38:28 --> Config file loaded: /opt/lampp/htdocs/team/application/config/aauth.php
INFO - 2015-08-08 19:38:28 --> Database Driver Class Initialized
DEBUG - 2015-08-08 19:38:28 --> UTF-8 Support Enabled
INFO - 2015-08-08 19:38:28 --> Utf8 Class Initialized
INFO - 2015-08-08 19:38:28 --> URI Class Initialized
INFO - 2015-08-08 19:38:28 --> Router Class Initialized
INFO - 2015-08-08 19:38:28 --> Output Class Initialized
INFO - 2015-08-08 19:38:28 --> Security Class Initialized
INFO - 2015-08-08 19:38:28 --> Helper loaded: form_helper
INFO - 2015-08-08 19:38:28 --> Form Validation Class Initialized
INFO - 2015-08-08 19:38:28 --> Security Class Initialized
DEBUG - 2015-08-08 19:38:28 --> Global POST, GET and COOKIE data sanitized
INFO - 2015-08-08 19:38:28 --> Input Class Initialized
INFO - 2015-08-08 19:38:28 --> Language Class Initialized
INFO - 2015-08-08 19:38:28 --> Parser Class Initialized
INFO - 2015-08-08 19:38:28 --> Controller Class Initialized
INFO - 2015-08-08 19:38:28 --> Loader Class Initialized
INFO - 2015-08-08 19:38:28 --> Helper loaded: url_helper
INFO - 2015-08-08 19:38:28 --> Helper loaded: thumb_helper
DEBUG - 2015-08-08 19:38:28 --> Global POST, GET and COOKIE data sanitized
INFO - 2015-08-08 19:38:28 --> Input Class Initialized
INFO - 2015-08-08 19:38:28 --> Loader Class Initialized
INFO - 2015-08-08 19:38:28 --> Helper loaded: url_helper
INFO - 2015-08-08 19:38:28 --> Helper loaded: thumb_helper
INFO - 2015-08-08 19:38:28 --> Language Class Initialized
INFO - 2015-08-08 19:38:28 --> Loader Class Initialized
INFO - 2015-08-08 19:38:28 --> Helper loaded: url_helper
INFO - 2015-08-08 19:38:28 --> Helper loaded: thumb_helper
INFO - 2015-08-08 19:38:28 --> File loaded: /opt/lampp/htdocs/team/application/views/layout/header.php
INFO - 2015-08-08 19:38:28 --> File loaded: /opt/lampp/htdocs/team/application/views/errors/html/custom.php
INFO - 2015-08-08 19:38:28 --> File loaded: /opt/lampp/htdocs/team/application/views/layout/footer.php
INFO - 2015-08-08 19:38:28 --> Final output sent to browser
DEBUG - 2015-08-08 19:38:28 --> Total execution time: 0.0636
INFO - 2015-08-08 19:38:28 --> Database Driver Class Initialized
INFO - 2015-08-08 19:38:28 --> Database Driver Class Initialized
INFO - 2015-08-08 19:38:28 --> Session: Class initialized using 'files' driver.
INFO - 2015-08-08 19:38:28 --> Database Driver Class Initialized
DEBUG - 2015-08-08 19:38:28 --> Session class already loaded. Second attempt ignored.
INFO - 2015-08-08 19:38:28 --> Email Class Initialized
INFO - 2015-08-08 19:38:28 --> Helper loaded: string_helper
INFO - 2015-08-08 19:38:28 --> Helper loaded: email_helper
INFO - 2015-08-08 19:38:28 --> Helper loaded: language_helper
INFO - 2015-08-08 19:38:28 --> Helper loaded: recaptchalib_helper
INFO - 2015-08-08 19:38:28 --> Helper loaded: googleauthenticator_helper
INFO - 2015-08-08 19:38:28 --> Language file loaded: language/english/aauth_lang.php
DEBUG - 2015-08-08 19:38:28 --> Config file loaded: /opt/lampp/htdocs/team/application/config/aauth.php
INFO - 2015-08-08 19:38:28 --> Database Driver Class Initialized
INFO - 2015-08-08 19:38:28 --> Helper loaded: form_helper
INFO - 2015-08-08 19:38:28 --> Form Validation Class Initialized
INFO - 2015-08-08 19:38:28 --> Parser Class Initialized
INFO - 2015-08-08 19:38:28 --> Controller Class Initialized
INFO - 2015-08-08 19:38:28 --> File loaded: /opt/lampp/htdocs/team/application/views/layout/header.php
INFO - 2015-08-08 19:38:28 --> File loaded: /opt/lampp/htdocs/team/application/views/errors/html/custom.php
INFO - 2015-08-08 19:38:28 --> File loaded: /opt/lampp/htdocs/team/application/views/layout/footer.php
INFO - 2015-08-08 19:38:28 --> Final output sent to browser
DEBUG - 2015-08-08 19:38:28 --> Total execution time: 0.0785
INFO - 2015-08-08 19:38:28 --> Session: Class initialized using 'files' driver.
DEBUG - 2015-08-08 19:38:28 --> Session class already loaded. Second attempt ignored.
INFO - 2015-08-08 19:38:28 --> Email Class Initialized
INFO - 2015-08-08 19:38:28 --> Helper loaded: string_helper
INFO - 2015-08-08 19:38:28 --> Helper loaded: email_helper
INFO - 2015-08-08 19:38:28 --> Helper loaded: language_helper
INFO - 2015-08-08 19:38:28 --> Helper loaded: recaptchalib_helper
INFO - 2015-08-08 19:38:28 --> Helper loaded: googleauthenticator_helper
INFO - 2015-08-08 19:38:28 --> Language file loaded: language/english/aauth_lang.php
DEBUG - 2015-08-08 19:38:28 --> Config file loaded: /opt/lampp/htdocs/team/application/config/aauth.php
INFO - 2015-08-08 19:38:28 --> Database Driver Class Initialized
INFO - 2015-08-08 19:38:28 --> Helper loaded: form_helper
INFO - 2015-08-08 19:38:28 --> Form Validation Class Initialized
INFO - 2015-08-08 19:38:28 --> Parser Class Initialized
INFO - 2015-08-08 19:38:28 --> Controller Class Initialized
INFO - 2015-08-08 19:38:28 --> File loaded: /opt/lampp/htdocs/team/application/views/layout/header.php
INFO - 2015-08-08 19:38:28 --> File loaded: /opt/lampp/htdocs/team/application/views/errors/html/custom.php
INFO - 2015-08-08 19:38:28 --> File loaded: /opt/lampp/htdocs/team/application/views/layout/footer.php
INFO - 2015-08-08 19:38:28 --> Final output sent to browser
DEBUG - 2015-08-08 19:38:28 --> Total execution time: 0.1283
INFO - 2015-08-08 19:38:28 --> Session: Class initialized using 'files' driver.
DEBUG - 2015-08-08 19:38:28 --> Session class already loaded. Second attempt ignored.
INFO - 2015-08-08 19:38:28 --> Email Class Initialized
INFO - 2015-08-08 19:38:28 --> Helper loaded: string_helper
INFO - 2015-08-08 19:38:28 --> Helper loaded: email_helper
INFO - 2015-08-08 19:38:28 --> Helper loaded: language_helper
INFO - 2015-08-08 19:38:28 --> Helper loaded: recaptchalib_helper
INFO - 2015-08-08 19:38:28 --> Helper loaded: googleauthenticator_helper
INFO - 2015-08-08 19:38:28 --> Language file loaded: language/english/aauth_lang.php
DEBUG - 2015-08-08 19:38:28 --> Config file loaded: /opt/lampp/htdocs/team/application/config/aauth.php
INFO - 2015-08-08 19:38:28 --> Database Driver Class Initialized
INFO - 2015-08-08 19:38:28 --> Helper loaded: form_helper
INFO - 2015-08-08 19:38:28 --> Form Validation Class Initialized
INFO - 2015-08-08 19:38:28 --> Parser Class Initialized
INFO - 2015-08-08 19:38:28 --> Controller Class Initialized
INFO - 2015-08-08 19:38:28 --> File loaded: /opt/lampp/htdocs/team/application/views/layout/header.php
INFO - 2015-08-08 19:38:28 --> File loaded: /opt/lampp/htdocs/team/application/views/errors/html/custom.php
INFO - 2015-08-08 19:38:28 --> File loaded: /opt/lampp/htdocs/team/application/views/layout/footer.php
INFO - 2015-08-08 19:38:28 --> Final output sent to browser
DEBUG - 2015-08-08 19:38:28 --> Total execution time: 0.1489
INFO - 2015-08-08 19:38:31 --> Config Class Initialized
INFO - 2015-08-08 19:38:31 --> Hooks Class Initialized
DEBUG - 2015-08-08 19:38:31 --> UTF-8 Support Enabled
INFO - 2015-08-08 19:38:31 --> Utf8 Class Initialized
INFO - 2015-08-08 19:38:31 --> URI Class Initialized
INFO - 2015-08-08 19:38:31 --> Router Class Initialized
INFO - 2015-08-08 19:38:31 --> Output Class Initialized
INFO - 2015-08-08 19:38:31 --> Security Class Initialized
DEBUG - 2015-08-08 19:38:31 --> Global POST, GET and COOKIE data sanitized
INFO - 2015-08-08 19:38:31 --> Input Class Initialized
INFO - 2015-08-08 19:38:31 --> Language Class Initialized
INFO - 2015-08-08 19:38:31 --> Loader Class Initialized
INFO - 2015-08-08 19:38:31 --> Helper loaded: url_helper
INFO - 2015-08-08 19:38:31 --> Helper loaded: thumb_helper
INFO - 2015-08-08 19:38:31 --> Database Driver Class Initialized
INFO - 2015-08-08 19:38:31 --> Session: Class initialized using 'files' driver.
DEBUG - 2015-08-08 19:38:31 --> Session class already loaded. Second attempt ignored.
INFO - 2015-08-08 19:38:31 --> Email Class Initialized
INFO - 2015-08-08 19:38:31 --> Helper loaded: string_helper
INFO - 2015-08-08 19:38:31 --> Helper loaded: email_helper
INFO - 2015-08-08 19:38:31 --> Helper loaded: language_helper
INFO - 2015-08-08 19:38:31 --> Helper loaded: recaptchalib_helper
INFO - 2015-08-08 19:38:31 --> Helper loaded: googleauthenticator_helper
INFO - 2015-08-08 19:38:31 --> Language file loaded: language/english/aauth_lang.php
DEBUG - 2015-08-08 19:38:31 --> Config file loaded: /opt/lampp/htdocs/team/application/config/aauth.php
INFO - 2015-08-08 19:38:31 --> Database Driver Class Initialized
INFO - 2015-08-08 19:38:31 --> Helper loaded: form_helper
INFO - 2015-08-08 19:38:31 --> Form Validation Class Initialized
INFO - 2015-08-08 19:38:31 --> Parser Class Initialized
INFO - 2015-08-08 19:38:31 --> Controller Class Initialized
INFO - 2015-08-08 19:38:31 --> Upload Class Initialized
INFO - 2015-08-08 19:38:31 --> Model Class Initialized
INFO - 2015-08-08 19:38:31 --> Model Class Initialized
INFO - 2015-08-08 19:38:31 --> Model Class Initialized
INFO - 2015-08-08 19:38:31 --> Model Class Initialized
INFO - 2015-08-08 19:38:31 --> Language file loaded: language/english/pagination_lang.php
INFO - 2015-08-08 19:38:31 --> Pagination Class Initialized
INFO - 2015-08-08 19:38:31 --> File loaded: /opt/lampp/htdocs/team/application/views/layout/header.php
ERROR - 2015-08-08 19:38:31 --> Severity: Warning --> Invalid argument supplied for foreach() /opt/lampp/htdocs/team/application/views/camera/index.php 38
INFO - 2015-08-08 19:38:31 --> File loaded: /opt/lampp/htdocs/team/application/views/camera/index.php
INFO - 2015-08-08 19:38:31 --> File loaded: /opt/lampp/htdocs/team/application/views/layout/footer.php
INFO - 2015-08-08 19:38:31 --> Final output sent to browser
DEBUG - 2015-08-08 19:38:31 --> Total execution time: 0.1898
INFO - 2015-08-08 19:38:31 --> Config Class Initialized
INFO - 2015-08-08 19:38:31 --> Hooks Class Initialized
DEBUG - 2015-08-08 19:38:31 --> UTF-8 Support Enabled
INFO - 2015-08-08 19:38:31 --> Utf8 Class Initialized
INFO - 2015-08-08 19:38:31 --> URI Class Initialized
INFO - 2015-08-08 19:38:31 --> Router Class Initialized
INFO - 2015-08-08 19:38:31 --> Output Class Initialized
INFO - 2015-08-08 19:38:31 --> Security Class Initialized
DEBUG - 2015-08-08 19:38:31 --> Global POST, GET and COOKIE data sanitized
INFO - 2015-08-08 19:38:31 --> Input Class Initialized
INFO - 2015-08-08 19:38:31 --> Language Class Initialized
INFO - 2015-08-08 19:38:31 --> Loader Class Initialized
INFO - 2015-08-08 19:38:31 --> Helper loaded: url_helper
INFO - 2015-08-08 19:38:31 --> Helper loaded: thumb_helper
INFO - 2015-08-08 19:38:31 --> Database Driver Class Initialized
INFO - 2015-08-08 19:38:31 --> Session: Class initialized using 'files' driver.
DEBUG - 2015-08-08 19:38:31 --> Session class already loaded. Second attempt ignored.
INFO - 2015-08-08 19:38:31 --> Email Class Initialized
INFO - 2015-08-08 19:38:31 --> Helper loaded: string_helper
INFO - 2015-08-08 19:38:31 --> Helper loaded: email_helper
INFO - 2015-08-08 19:38:31 --> Helper loaded: language_helper
INFO - 2015-08-08 19:38:31 --> Helper loaded: recaptchalib_helper
INFO - 2015-08-08 19:38:31 --> Helper loaded: googleauthenticator_helper
INFO - 2015-08-08 19:38:31 --> Language file loaded: language/english/aauth_lang.php
DEBUG - 2015-08-08 19:38:31 --> Config file loaded: /opt/lampp/htdocs/team/application/config/aauth.php
INFO - 2015-08-08 19:38:31 --> Database Driver Class Initialized
INFO - 2015-08-08 19:38:31 --> Helper loaded: form_helper
INFO - 2015-08-08 19:38:31 --> Form Validation Class Initialized
INFO - 2015-08-08 19:38:31 --> Parser Class Initialized
INFO - 2015-08-08 19:38:31 --> Controller Class Initialized
INFO - 2015-08-08 19:38:31 --> File loaded: /opt/lampp/htdocs/team/application/views/layout/header.php
INFO - 2015-08-08 19:38:31 --> File loaded: /opt/lampp/htdocs/team/application/views/errors/html/custom.php
INFO - 2015-08-08 19:38:31 --> File loaded: /opt/lampp/htdocs/team/application/views/layout/footer.php
INFO - 2015-08-08 19:38:31 --> Final output sent to browser
DEBUG - 2015-08-08 19:38:31 --> Total execution time: 0.0400
INFO - 2015-08-08 19:38:31 --> Config Class Initialized
INFO - 2015-08-08 19:38:31 --> Hooks Class Initialized
DEBUG - 2015-08-08 19:38:31 --> UTF-8 Support Enabled
INFO - 2015-08-08 19:38:31 --> Utf8 Class Initialized
INFO - 2015-08-08 19:38:31 --> URI Class Initialized
INFO - 2015-08-08 19:38:31 --> Router Class Initialized
INFO - 2015-08-08 19:38:31 --> Output Class Initialized
INFO - 2015-08-08 19:38:31 --> Config Class Initialized
INFO - 2015-08-08 19:38:31 --> Hooks Class Initialized
INFO - 2015-08-08 19:38:31 --> Security Class Initialized
DEBUG - 2015-08-08 19:38:31 --> UTF-8 Support Enabled
INFO - 2015-08-08 19:38:31 --> Utf8 Class Initialized
DEBUG - 2015-08-08 19:38:31 --> Global POST, GET and COOKIE data sanitized
INFO - 2015-08-08 19:38:31 --> Input Class Initialized
INFO - 2015-08-08 19:38:31 --> Language Class Initialized
INFO - 2015-08-08 19:38:31 --> URI Class Initialized
INFO - 2015-08-08 19:38:31 --> Router Class Initialized
INFO - 2015-08-08 19:38:31 --> Loader Class Initialized
INFO - 2015-08-08 19:38:31 --> Helper loaded: url_helper
INFO - 2015-08-08 19:38:31 --> Helper loaded: thumb_helper
INFO - 2015-08-08 19:38:31 --> Config Class Initialized
INFO - 2015-08-08 19:38:31 --> Hooks Class Initialized
DEBUG - 2015-08-08 19:38:31 --> UTF-8 Support Enabled
INFO - 2015-08-08 19:38:31 --> Utf8 Class Initialized
INFO - 2015-08-08 19:38:31 --> URI Class Initialized
INFO - 2015-08-08 19:38:31 --> Router Class Initialized
INFO - 2015-08-08 19:38:31 --> Output Class Initialized
INFO - 2015-08-08 19:38:31 --> Config Class Initialized
INFO - 2015-08-08 19:38:31 --> Hooks Class Initialized
DEBUG - 2015-08-08 19:38:31 --> UTF-8 Support Enabled
INFO - 2015-08-08 19:38:31 --> Utf8 Class Initialized
INFO - 2015-08-08 19:38:31 --> URI Class Initialized
INFO - 2015-08-08 19:38:31 --> Output Class Initialized
INFO - 2015-08-08 19:38:31 --> Database Driver Class Initialized
INFO - 2015-08-08 19:38:31 --> Security Class Initialized
DEBUG - 2015-08-08 19:38:31 --> Global POST, GET and COOKIE data sanitized
INFO - 2015-08-08 19:38:31 --> Input Class Initialized
INFO - 2015-08-08 19:38:31 --> Language Class Initialized
INFO - 2015-08-08 19:38:31 --> Security Class Initialized
INFO - 2015-08-08 19:38:31 --> Router Class Initialized
INFO - 2015-08-08 19:38:31 --> Output Class Initialized
INFO - 2015-08-08 19:38:31 --> Session: Class initialized using 'files' driver.
INFO - 2015-08-08 19:38:31 --> Security Class Initialized
INFO - 2015-08-08 19:38:31 --> Loader Class Initialized
INFO - 2015-08-08 19:38:31 --> Helper loaded: url_helper
INFO - 2015-08-08 19:38:31 --> Helper loaded: thumb_helper
DEBUG - 2015-08-08 19:38:31 --> Session class already loaded. Second attempt ignored.
DEBUG - 2015-08-08 19:38:31 --> Global POST, GET and COOKIE data sanitized
INFO - 2015-08-08 19:38:31 --> Input Class Initialized
INFO - 2015-08-08 19:38:31 --> Language Class Initialized
INFO - 2015-08-08 19:38:31 --> Email Class Initialized
INFO - 2015-08-08 19:38:31 --> Helper loaded: string_helper
INFO - 2015-08-08 19:38:31 --> Helper loaded: email_helper
INFO - 2015-08-08 19:38:31 --> Helper loaded: language_helper
INFO - 2015-08-08 19:38:31 --> Helper loaded: recaptchalib_helper
DEBUG - 2015-08-08 19:38:31 --> Global POST, GET and COOKIE data sanitized
INFO - 2015-08-08 19:38:31 --> Input Class Initialized
INFO - 2015-08-08 19:38:31 --> Helper loaded: googleauthenticator_helper
INFO - 2015-08-08 19:38:31 --> Language Class Initialized
INFO - 2015-08-08 19:38:31 --> Language file loaded: language/english/aauth_lang.php
DEBUG - 2015-08-08 19:38:31 --> Config file loaded: /opt/lampp/htdocs/team/application/config/aauth.php
INFO - 2015-08-08 19:38:31 --> Database Driver Class Initialized
INFO - 2015-08-08 19:38:31 --> Loader Class Initialized
INFO - 2015-08-08 19:38:31 --> Helper loaded: url_helper
INFO - 2015-08-08 19:38:31 --> Helper loaded: thumb_helper
INFO - 2015-08-08 19:38:31 --> Helper loaded: form_helper
INFO - 2015-08-08 19:38:31 --> Form Validation Class Initialized
INFO - 2015-08-08 19:38:31 --> Parser Class Initialized
INFO - 2015-08-08 19:38:31 --> Controller Class Initialized
INFO - 2015-08-08 19:38:31 --> Loader Class Initialized
INFO - 2015-08-08 19:38:31 --> Helper loaded: url_helper
INFO - 2015-08-08 19:38:31 --> Helper loaded: thumb_helper
INFO - 2015-08-08 19:38:31 --> File loaded: /opt/lampp/htdocs/team/application/views/layout/header.php
INFO - 2015-08-08 19:38:31 --> File loaded: /opt/lampp/htdocs/team/application/views/errors/html/custom.php
INFO - 2015-08-08 19:38:31 --> File loaded: /opt/lampp/htdocs/team/application/views/layout/footer.php
INFO - 2015-08-08 19:38:31 --> Database Driver Class Initialized
INFO - 2015-08-08 19:38:31 --> Final output sent to browser
DEBUG - 2015-08-08 19:38:31 --> Total execution time: 0.0521
INFO - 2015-08-08 19:38:31 --> Database Driver Class Initialized
INFO - 2015-08-08 19:38:31 --> Session: Class initialized using 'files' driver.
INFO - 2015-08-08 19:38:31 --> Database Driver Class Initialized
DEBUG - 2015-08-08 19:38:31 --> Session class already loaded. Second attempt ignored.
INFO - 2015-08-08 19:38:31 --> Email Class Initialized
INFO - 2015-08-08 19:38:31 --> Helper loaded: string_helper
INFO - 2015-08-08 19:38:31 --> Helper loaded: email_helper
INFO - 2015-08-08 19:38:31 --> Helper loaded: language_helper
INFO - 2015-08-08 19:38:31 --> Helper loaded: recaptchalib_helper
INFO - 2015-08-08 19:38:31 --> Helper loaded: googleauthenticator_helper
INFO - 2015-08-08 19:38:31 --> Language file loaded: language/english/aauth_lang.php
DEBUG - 2015-08-08 19:38:31 --> Config file loaded: /opt/lampp/htdocs/team/application/config/aauth.php
INFO - 2015-08-08 19:38:31 --> Database Driver Class Initialized
INFO - 2015-08-08 19:38:31 --> Helper loaded: form_helper
INFO - 2015-08-08 19:38:31 --> Form Validation Class Initialized
INFO - 2015-08-08 19:38:31 --> Parser Class Initialized
INFO - 2015-08-08 19:38:31 --> Controller Class Initialized
INFO - 2015-08-08 19:38:31 --> File loaded: /opt/lampp/htdocs/team/application/views/layout/header.php
INFO - 2015-08-08 19:38:31 --> File loaded: /opt/lampp/htdocs/team/application/views/errors/html/custom.php
INFO - 2015-08-08 19:38:31 --> File loaded: /opt/lampp/htdocs/team/application/views/layout/footer.php
INFO - 2015-08-08 19:38:31 --> Final output sent to browser
DEBUG - 2015-08-08 19:38:31 --> Total execution time: 0.0823
INFO - 2015-08-08 19:38:31 --> Session: Class initialized using 'files' driver.
DEBUG - 2015-08-08 19:38:31 --> Session class already loaded. Second attempt ignored.
INFO - 2015-08-08 19:38:31 --> Email Class Initialized
INFO - 2015-08-08 19:38:31 --> Helper loaded: string_helper
INFO - 2015-08-08 19:38:31 --> Helper loaded: email_helper
INFO - 2015-08-08 19:38:31 --> Helper loaded: language_helper
INFO - 2015-08-08 19:38:31 --> Helper loaded: recaptchalib_helper
INFO - 2015-08-08 19:38:31 --> Helper loaded: googleauthenticator_helper
INFO - 2015-08-08 19:38:31 --> Language file loaded: language/english/aauth_lang.php
DEBUG - 2015-08-08 19:38:31 --> Config file loaded: /opt/lampp/htdocs/team/application/config/aauth.php
INFO - 2015-08-08 19:38:31 --> Database Driver Class Initialized
INFO - 2015-08-08 19:38:31 --> Helper loaded: form_helper
INFO - 2015-08-08 19:38:31 --> Form Validation Class Initialized
INFO - 2015-08-08 19:38:31 --> Parser Class Initialized
INFO - 2015-08-08 19:38:31 --> Controller Class Initialized
INFO - 2015-08-08 19:38:31 --> File loaded: /opt/lampp/htdocs/team/application/views/layout/header.php
INFO - 2015-08-08 19:38:31 --> File loaded: /opt/lampp/htdocs/team/application/views/errors/html/custom.php
INFO - 2015-08-08 19:38:31 --> File loaded: /opt/lampp/htdocs/team/application/views/layout/footer.php
INFO - 2015-08-08 19:38:31 --> Final output sent to browser
DEBUG - 2015-08-08 19:38:31 --> Total execution time: 0.0963
INFO - 2015-08-08 19:38:31 --> Session: Class initialized using 'files' driver.
DEBUG - 2015-08-08 19:38:31 --> Session class already loaded. Second attempt ignored.
INFO - 2015-08-08 19:38:31 --> Email Class Initialized
INFO - 2015-08-08 19:38:31 --> Helper loaded: string_helper
INFO - 2015-08-08 19:38:31 --> Helper loaded: email_helper
INFO - 2015-08-08 19:38:31 --> Helper loaded: language_helper
INFO - 2015-08-08 19:38:31 --> Helper loaded: recaptchalib_helper
INFO - 2015-08-08 19:38:31 --> Helper loaded: googleauthenticator_helper
INFO - 2015-08-08 19:38:31 --> Language file loaded: language/english/aauth_lang.php
DEBUG - 2015-08-08 19:38:31 --> Config file loaded: /opt/lampp/htdocs/team/application/config/aauth.php
INFO - 2015-08-08 19:38:31 --> Database Driver Class Initialized
INFO - 2015-08-08 19:38:31 --> Helper loaded: form_helper
INFO - 2015-08-08 19:38:31 --> Form Validation Class Initialized
INFO - 2015-08-08 19:38:31 --> Parser Class Initialized
INFO - 2015-08-08 19:38:31 --> Controller Class Initialized
INFO - 2015-08-08 19:38:31 --> File loaded: /opt/lampp/htdocs/team/application/views/layout/header.php
INFO - 2015-08-08 19:38:31 --> File loaded: /opt/lampp/htdocs/team/application/views/errors/html/custom.php
INFO - 2015-08-08 19:38:31 --> File loaded: /opt/lampp/htdocs/team/application/views/layout/footer.php
INFO - 2015-08-08 19:38:31 --> Final output sent to browser
DEBUG - 2015-08-08 19:38:31 --> Total execution time: 0.1151
INFO - 2015-08-08 19:38:33 --> Config Class Initialized
INFO - 2015-08-08 19:38:33 --> Hooks Class Initialized
DEBUG - 2015-08-08 19:38:33 --> UTF-8 Support Enabled
INFO - 2015-08-08 19:38:33 --> Utf8 Class Initialized
INFO - 2015-08-08 19:38:33 --> URI Class Initialized
DEBUG - 2015-08-08 19:38:33 --> No URI present. Default controller set.
INFO - 2015-08-08 19:38:33 --> Router Class Initialized
INFO - 2015-08-08 19:38:33 --> Output Class Initialized
INFO - 2015-08-08 19:38:33 --> Security Class Initialized
DEBUG - 2015-08-08 19:38:33 --> Global POST, GET and COOKIE data sanitized
INFO - 2015-08-08 19:38:33 --> Input Class Initialized
INFO - 2015-08-08 19:38:33 --> Language Class Initialized
INFO - 2015-08-08 19:38:33 --> Loader Class Initialized
INFO - 2015-08-08 19:38:33 --> Helper loaded: url_helper
INFO - 2015-08-08 19:38:33 --> Helper loaded: thumb_helper
INFO - 2015-08-08 19:38:33 --> Database Driver Class Initialized
INFO - 2015-08-08 19:38:33 --> Session: Class initialized using 'files' driver.
DEBUG - 2015-08-08 19:38:33 --> Session class already loaded. Second attempt ignored.
INFO - 2015-08-08 19:38:33 --> Email Class Initialized
INFO - 2015-08-08 19:38:33 --> Helper loaded: string_helper
INFO - 2015-08-08 19:38:33 --> Helper loaded: email_helper
INFO - 2015-08-08 19:38:33 --> Helper loaded: language_helper
INFO - 2015-08-08 19:38:33 --> Helper loaded: recaptchalib_helper
INFO - 2015-08-08 19:38:33 --> Helper loaded: googleauthenticator_helper
INFO - 2015-08-08 19:38:33 --> Language file loaded: language/english/aauth_lang.php
DEBUG - 2015-08-08 19:38:33 --> Config file loaded: /opt/lampp/htdocs/team/application/config/aauth.php
INFO - 2015-08-08 19:38:33 --> Database Driver Class Initialized
INFO - 2015-08-08 19:38:33 --> Helper loaded: form_helper
INFO - 2015-08-08 19:38:33 --> Form Validation Class Initialized
INFO - 2015-08-08 19:38:33 --> Parser Class Initialized
INFO - 2015-08-08 19:38:33 --> Controller Class Initialized
INFO - 2015-08-08 19:38:33 --> Model Class Initialized
INFO - 2015-08-08 19:38:33 --> Model Class Initialized
INFO - 2015-08-08 19:38:33 --> Model Class Initialized
INFO - 2015-08-08 19:38:33 --> Model Class Initialized
INFO - 2015-08-08 19:38:33 --> Model Class Initialized
DEBUG - 2015-08-08 19:38:33 --> Aauth class already loaded. Second attempt ignored.
INFO - 2015-08-08 19:38:33 --> User Agent Class Initialized
INFO - 2015-08-08 19:38:33 --> Language file loaded: language/english/pagination_lang.php
INFO - 2015-08-08 19:38:33 --> Pagination Class Initialized
INFO - 2015-08-08 19:38:33 --> File loaded: /opt/lampp/htdocs/team/application/views/layout/header.php
INFO - 2015-08-08 19:38:33 --> File loaded: /opt/lampp/htdocs/team/application/views/index.php
INFO - 2015-08-08 19:38:33 --> File loaded: /opt/lampp/htdocs/team/application/views/layout/footer.php
INFO - 2015-08-08 19:38:33 --> Final output sent to browser
DEBUG - 2015-08-08 19:38:33 --> Total execution time: 0.0528
INFO - 2015-08-08 19:38:33 --> Config Class Initialized
INFO - 2015-08-08 19:38:33 --> Hooks Class Initialized
DEBUG - 2015-08-08 19:38:33 --> UTF-8 Support Enabled
INFO - 2015-08-08 19:38:33 --> Utf8 Class Initialized
INFO - 2015-08-08 19:38:33 --> URI Class Initialized
INFO - 2015-08-08 19:38:33 --> Router Class Initialized
INFO - 2015-08-08 19:38:33 --> Output Class Initialized
INFO - 2015-08-08 19:38:33 --> Security Class Initialized
DEBUG - 2015-08-08 19:38:33 --> Global POST, GET and COOKIE data sanitized
INFO - 2015-08-08 19:38:33 --> Input Class Initialized
INFO - 2015-08-08 19:38:33 --> Language Class Initialized
INFO - 2015-08-08 19:38:33 --> Loader Class Initialized
INFO - 2015-08-08 19:38:33 --> Helper loaded: url_helper
INFO - 2015-08-08 19:38:33 --> Helper loaded: thumb_helper
INFO - 2015-08-08 19:38:33 --> Database Driver Class Initialized
INFO - 2015-08-08 19:38:33 --> Session: Class initialized using 'files' driver.
DEBUG - 2015-08-08 19:38:33 --> Session class already loaded. Second attempt ignored.
INFO - 2015-08-08 19:38:33 --> Email Class Initialized
INFO - 2015-08-08 19:38:33 --> Helper loaded: string_helper
INFO - 2015-08-08 19:38:33 --> Helper loaded: email_helper
INFO - 2015-08-08 19:38:33 --> Helper loaded: language_helper
INFO - 2015-08-08 19:38:33 --> Helper loaded: recaptchalib_helper
INFO - 2015-08-08 19:38:33 --> Helper loaded: googleauthenticator_helper
INFO - 2015-08-08 19:38:33 --> Language file loaded: language/english/aauth_lang.php
DEBUG - 2015-08-08 19:38:33 --> Config file loaded: /opt/lampp/htdocs/team/application/config/aauth.php
INFO - 2015-08-08 19:38:33 --> Database Driver Class Initialized
INFO - 2015-08-08 19:38:33 --> Helper loaded: form_helper
INFO - 2015-08-08 19:38:33 --> Form Validation Class Initialized
INFO - 2015-08-08 19:38:33 --> Parser Class Initialized
INFO - 2015-08-08 19:38:33 --> Controller Class Initialized
INFO - 2015-08-08 19:38:33 --> File loaded: /opt/lampp/htdocs/team/application/views/layout/header.php
INFO - 2015-08-08 19:38:33 --> File loaded: /opt/lampp/htdocs/team/application/views/errors/html/custom.php
INFO - 2015-08-08 19:38:33 --> File loaded: /opt/lampp/htdocs/team/application/views/layout/footer.php
INFO - 2015-08-08 19:38:33 --> Final output sent to browser
DEBUG - 2015-08-08 19:38:33 --> Total execution time: 0.0413
INFO - 2015-08-08 19:38:33 --> Config Class Initialized
INFO - 2015-08-08 19:38:33 --> Hooks Class Initialized
DEBUG - 2015-08-08 19:38:33 --> UTF-8 Support Enabled
INFO - 2015-08-08 19:38:33 --> Utf8 Class Initialized
INFO - 2015-08-08 19:38:33 --> URI Class Initialized
INFO - 2015-08-08 19:38:33 --> Router Class Initialized
INFO - 2015-08-08 19:38:33 --> Output Class Initialized
INFO - 2015-08-08 19:38:33 --> Security Class Initialized
DEBUG - 2015-08-08 19:38:33 --> Global POST, GET and COOKIE data sanitized
INFO - 2015-08-08 19:38:33 --> Input Class Initialized
INFO - 2015-08-08 19:38:33 --> Language Class Initialized
INFO - 2015-08-08 19:38:33 --> Loader Class Initialized
INFO - 2015-08-08 19:38:33 --> Helper loaded: url_helper
INFO - 2015-08-08 19:38:33 --> Helper loaded: thumb_helper
INFO - 2015-08-08 19:38:33 --> Config Class Initialized
INFO - 2015-08-08 19:38:33 --> Hooks Class Initialized
INFO - 2015-08-08 19:38:33 --> Config Class Initialized
INFO - 2015-08-08 19:38:33 --> Hooks Class Initialized
INFO - 2015-08-08 19:38:33 --> Config Class Initialized
INFO - 2015-08-08 19:38:33 --> Hooks Class Initialized
DEBUG - 2015-08-08 19:38:33 --> UTF-8 Support Enabled
INFO - 2015-08-08 19:38:33 --> Utf8 Class Initialized
INFO - 2015-08-08 19:38:33 --> URI Class Initialized
INFO - 2015-08-08 19:38:33 --> Router Class Initialized
INFO - 2015-08-08 19:38:33 --> Config Class Initialized
INFO - 2015-08-08 19:38:33 --> Hooks Class Initialized
INFO - 2015-08-08 19:38:33 --> Output Class Initialized
DEBUG - 2015-08-08 19:38:33 --> UTF-8 Support Enabled
INFO - 2015-08-08 19:38:33 --> Utf8 Class Initialized
DEBUG - 2015-08-08 19:38:33 --> UTF-8 Support Enabled
INFO - 2015-08-08 19:38:33 --> Utf8 Class Initialized
INFO - 2015-08-08 19:38:33 --> URI Class Initialized
INFO - 2015-08-08 19:38:33 --> URI Class Initialized
INFO - 2015-08-08 19:38:33 --> Router Class Initialized
DEBUG - 2015-08-08 19:38:33 --> UTF-8 Support Enabled
INFO - 2015-08-08 19:38:33 --> Utf8 Class Initialized
INFO - 2015-08-08 19:38:33 --> URI Class Initialized
INFO - 2015-08-08 19:38:33 --> Database Driver Class Initialized
INFO - 2015-08-08 19:38:33 --> Router Class Initialized
INFO - 2015-08-08 19:38:33 --> Router Class Initialized
INFO - 2015-08-08 19:38:33 --> Output Class Initialized
INFO - 2015-08-08 19:38:33 --> Output Class Initialized
INFO - 2015-08-08 19:38:33 --> Security Class Initialized
INFO - 2015-08-08 19:38:33 --> Security Class Initialized
DEBUG - 2015-08-08 19:38:33 --> Global POST, GET and COOKIE data sanitized
INFO - 2015-08-08 19:38:33 --> Input Class Initialized
INFO - 2015-08-08 19:38:33 --> Language Class Initialized
DEBUG - 2015-08-08 19:38:33 --> Global POST, GET and COOKIE data sanitized
INFO - 2015-08-08 19:38:33 --> Input Class Initialized
INFO - 2015-08-08 19:38:33 --> Language Class Initialized
INFO - 2015-08-08 19:38:33 --> Loader Class Initialized
INFO - 2015-08-08 19:38:33 --> Loader Class Initialized
INFO - 2015-08-08 19:38:33 --> Security Class Initialized
INFO - 2015-08-08 19:38:33 --> Output Class Initialized
DEBUG - 2015-08-08 19:38:33 --> Global POST, GET and COOKIE data sanitized
INFO - 2015-08-08 19:38:33 --> Input Class Initialized
INFO - 2015-08-08 19:38:33 --> Language Class Initialized
INFO - 2015-08-08 19:38:33 --> Security Class Initialized
DEBUG - 2015-08-08 19:38:33 --> Global POST, GET and COOKIE data sanitized
INFO - 2015-08-08 19:38:33 --> Input Class Initialized
INFO - 2015-08-08 19:38:33 --> Language Class Initialized
INFO - 2015-08-08 19:38:33 --> Loader Class Initialized
INFO - 2015-08-08 19:38:33 --> Helper loaded: url_helper
INFO - 2015-08-08 19:38:33 --> Helper loaded: thumb_helper
INFO - 2015-08-08 19:38:33 --> Session: Class initialized using 'files' driver.
INFO - 2015-08-08 19:38:33 --> Helper loaded: url_helper
INFO - 2015-08-08 19:38:33 --> Helper loaded: thumb_helper
DEBUG - 2015-08-08 19:38:33 --> Session class already loaded. Second attempt ignored.
INFO - 2015-08-08 19:38:33 --> Loader Class Initialized
INFO - 2015-08-08 19:38:33 --> Helper loaded: url_helper
INFO - 2015-08-08 19:38:33 --> Helper loaded: thumb_helper
INFO - 2015-08-08 19:38:33 --> Database Driver Class Initialized
INFO - 2015-08-08 19:38:33 --> Helper loaded: url_helper
INFO - 2015-08-08 19:38:33 --> Helper loaded: thumb_helper
INFO - 2015-08-08 19:38:33 --> Database Driver Class Initialized
INFO - 2015-08-08 19:38:33 --> Email Class Initialized
INFO - 2015-08-08 19:38:33 --> Helper loaded: string_helper
INFO - 2015-08-08 19:38:33 --> Helper loaded: email_helper
INFO - 2015-08-08 19:38:33 --> Database Driver Class Initialized
INFO - 2015-08-08 19:38:33 --> Database Driver Class Initialized
INFO - 2015-08-08 19:38:33 --> Helper loaded: language_helper
INFO - 2015-08-08 19:38:33 --> Helper loaded: recaptchalib_helper
INFO - 2015-08-08 19:38:33 --> Helper loaded: googleauthenticator_helper
INFO - 2015-08-08 19:38:33 --> Language file loaded: language/english/aauth_lang.php
DEBUG - 2015-08-08 19:38:33 --> Config file loaded: /opt/lampp/htdocs/team/application/config/aauth.php
INFO - 2015-08-08 19:38:33 --> Database Driver Class Initialized
INFO - 2015-08-08 19:38:33 --> Helper loaded: form_helper
INFO - 2015-08-08 19:38:33 --> Form Validation Class Initialized
INFO - 2015-08-08 19:38:33 --> Parser Class Initialized
INFO - 2015-08-08 19:38:33 --> Controller Class Initialized
INFO - 2015-08-08 19:38:33 --> File loaded: /opt/lampp/htdocs/team/application/views/layout/header.php
INFO - 2015-08-08 19:38:33 --> File loaded: /opt/lampp/htdocs/team/application/views/errors/html/custom.php
INFO - 2015-08-08 19:38:33 --> File loaded: /opt/lampp/htdocs/team/application/views/layout/footer.php
INFO - 2015-08-08 19:38:33 --> Final output sent to browser
DEBUG - 2015-08-08 19:38:33 --> Total execution time: 0.0882
INFO - 2015-08-08 19:38:33 --> Session: Class initialized using 'files' driver.
DEBUG - 2015-08-08 19:38:33 --> Session class already loaded. Second attempt ignored.
INFO - 2015-08-08 19:38:33 --> Email Class Initialized
INFO - 2015-08-08 19:38:33 --> Helper loaded: string_helper
INFO - 2015-08-08 19:38:33 --> Helper loaded: email_helper
INFO - 2015-08-08 19:38:33 --> Helper loaded: language_helper
INFO - 2015-08-08 19:38:33 --> Helper loaded: recaptchalib_helper
INFO - 2015-08-08 19:38:33 --> Helper loaded: googleauthenticator_helper
INFO - 2015-08-08 19:38:33 --> Language file loaded: language/english/aauth_lang.php
DEBUG - 2015-08-08 19:38:33 --> Config file loaded: /opt/lampp/htdocs/team/application/config/aauth.php
INFO - 2015-08-08 19:38:33 --> Database Driver Class Initialized
INFO - 2015-08-08 19:38:33 --> Helper loaded: form_helper
INFO - 2015-08-08 19:38:33 --> Form Validation Class Initialized
INFO - 2015-08-08 19:38:33 --> Parser Class Initialized
INFO - 2015-08-08 19:38:33 --> Controller Class Initialized
INFO - 2015-08-08 19:38:33 --> File loaded: /opt/lampp/htdocs/team/application/views/layout/header.php
INFO - 2015-08-08 19:38:33 --> File loaded: /opt/lampp/htdocs/team/application/views/errors/html/custom.php
INFO - 2015-08-08 19:38:33 --> File loaded: /opt/lampp/htdocs/team/application/views/layout/footer.php
INFO - 2015-08-08 19:38:33 --> Final output sent to browser
DEBUG - 2015-08-08 19:38:33 --> Total execution time: 0.0858
INFO - 2015-08-08 19:38:33 --> Session: Class initialized using 'files' driver.
DEBUG - 2015-08-08 19:38:33 --> Session class already loaded. Second attempt ignored.
INFO - 2015-08-08 19:38:33 --> Email Class Initialized
INFO - 2015-08-08 19:38:33 --> Helper loaded: string_helper
INFO - 2015-08-08 19:38:33 --> Helper loaded: email_helper
INFO - 2015-08-08 19:38:33 --> Helper loaded: language_helper
INFO - 2015-08-08 19:38:33 --> Helper loaded: recaptchalib_helper
INFO - 2015-08-08 19:38:33 --> Helper loaded: googleauthenticator_helper
INFO - 2015-08-08 19:38:33 --> Language file loaded: language/english/aauth_lang.php
DEBUG - 2015-08-08 19:38:33 --> Config file loaded: /opt/lampp/htdocs/team/application/config/aauth.php
INFO - 2015-08-08 19:38:33 --> Database Driver Class Initialized
INFO - 2015-08-08 19:38:33 --> Helper loaded: form_helper
INFO - 2015-08-08 19:38:33 --> Form Validation Class Initialized
INFO - 2015-08-08 19:38:33 --> Parser Class Initialized
INFO - 2015-08-08 19:38:33 --> Controller Class Initialized
INFO - 2015-08-08 19:38:33 --> File loaded: /opt/lampp/htdocs/team/application/views/layout/header.php
INFO - 2015-08-08 19:38:33 --> File loaded: /opt/lampp/htdocs/team/application/views/errors/html/custom.php
INFO - 2015-08-08 19:38:33 --> File loaded: /opt/lampp/htdocs/team/application/views/layout/footer.php
INFO - 2015-08-08 19:38:33 --> Final output sent to browser
DEBUG - 2015-08-08 19:38:33 --> Total execution time: 0.1116
INFO - 2015-08-08 19:38:33 --> Session: Class initialized using 'files' driver.
DEBUG - 2015-08-08 19:38:33 --> Session class already loaded. Second attempt ignored.
INFO - 2015-08-08 19:38:33 --> Email Class Initialized
INFO - 2015-08-08 19:38:33 --> Helper loaded: string_helper
INFO - 2015-08-08 19:38:33 --> Helper loaded: email_helper
INFO - 2015-08-08 19:38:33 --> Helper loaded: language_helper
INFO - 2015-08-08 19:38:33 --> Helper loaded: recaptchalib_helper
INFO - 2015-08-08 19:38:33 --> Helper loaded: googleauthenticator_helper
INFO - 2015-08-08 19:38:33 --> Language file loaded: language/english/aauth_lang.php
DEBUG - 2015-08-08 19:38:33 --> Config file loaded: /opt/lampp/htdocs/team/application/config/aauth.php
INFO - 2015-08-08 19:38:33 --> Database Driver Class Initialized
INFO - 2015-08-08 19:38:33 --> Helper loaded: form_helper
INFO - 2015-08-08 19:38:33 --> Form Validation Class Initialized
INFO - 2015-08-08 19:38:33 --> Parser Class Initialized
INFO - 2015-08-08 19:38:33 --> Controller Class Initialized
INFO - 2015-08-08 19:38:33 --> File loaded: /opt/lampp/htdocs/team/application/views/layout/header.php
INFO - 2015-08-08 19:38:33 --> File loaded: /opt/lampp/htdocs/team/application/views/errors/html/custom.php
INFO - 2015-08-08 19:38:33 --> File loaded: /opt/lampp/htdocs/team/application/views/layout/footer.php
INFO - 2015-08-08 19:38:33 --> Final output sent to browser
DEBUG - 2015-08-08 19:38:33 --> Total execution time: 0.1315
INFO - 2015-08-08 19:38:33 --> Session: Class initialized using 'files' driver.
DEBUG - 2015-08-08 19:38:33 --> Session class already loaded. Second attempt ignored.
INFO - 2015-08-08 19:38:33 --> Email Class Initialized
INFO - 2015-08-08 19:38:33 --> Helper loaded: string_helper
INFO - 2015-08-08 19:38:33 --> Helper loaded: email_helper
INFO - 2015-08-08 19:38:33 --> Helper loaded: language_helper
INFO - 2015-08-08 19:38:33 --> Helper loaded: recaptchalib_helper
INFO - 2015-08-08 19:38:33 --> Helper loaded: googleauthenticator_helper
INFO - 2015-08-08 19:38:33 --> Language file loaded: language/english/aauth_lang.php
DEBUG - 2015-08-08 19:38:33 --> Config file loaded: /opt/lampp/htdocs/team/application/config/aauth.php
INFO - 2015-08-08 19:38:33 --> Database Driver Class Initialized
INFO - 2015-08-08 19:38:33 --> Helper loaded: form_helper
INFO - 2015-08-08 19:38:33 --> Form Validation Class Initialized
INFO - 2015-08-08 19:38:33 --> Parser Class Initialized
INFO - 2015-08-08 19:38:33 --> Controller Class Initialized
INFO - 2015-08-08 19:38:33 --> File loaded: /opt/lampp/htdocs/team/application/views/layout/header.php
INFO - 2015-08-08 19:38:33 --> File loaded: /opt/lampp/htdocs/team/application/views/errors/html/custom.php
INFO - 2015-08-08 19:38:33 --> File loaded: /opt/lampp/htdocs/team/application/views/layout/footer.php
INFO - 2015-08-08 19:38:33 --> Final output sent to browser
DEBUG - 2015-08-08 19:38:33 --> Total execution time: 0.1504
INFO - 2015-08-08 19:38:36 --> Config Class Initialized
INFO - 2015-08-08 19:38:36 --> Hooks Class Initialized
DEBUG - 2015-08-08 19:38:36 --> UTF-8 Support Enabled
INFO - 2015-08-08 19:38:36 --> Utf8 Class Initialized
INFO - 2015-08-08 19:38:36 --> URI Class Initialized
INFO - 2015-08-08 19:38:36 --> Router Class Initialized
INFO - 2015-08-08 19:38:36 --> Output Class Initialized
INFO - 2015-08-08 19:38:36 --> Security Class Initialized
DEBUG - 2015-08-08 19:38:36 --> Global POST, GET and COOKIE data sanitized
INFO - 2015-08-08 19:38:36 --> Input Class Initialized
INFO - 2015-08-08 19:38:36 --> Language Class Initialized
INFO - 2015-08-08 19:38:36 --> Loader Class Initialized
INFO - 2015-08-08 19:38:36 --> Helper loaded: url_helper
INFO - 2015-08-08 19:38:36 --> Helper loaded: thumb_helper
INFO - 2015-08-08 19:38:36 --> Database Driver Class Initialized
INFO - 2015-08-08 19:38:36 --> Session: Class initialized using 'files' driver.
DEBUG - 2015-08-08 19:38:36 --> Session class already loaded. Second attempt ignored.
INFO - 2015-08-08 19:38:36 --> Email Class Initialized
INFO - 2015-08-08 19:38:36 --> Helper loaded: string_helper
INFO - 2015-08-08 19:38:36 --> Helper loaded: email_helper
INFO - 2015-08-08 19:38:36 --> Helper loaded: language_helper
INFO - 2015-08-08 19:38:36 --> Helper loaded: recaptchalib_helper
INFO - 2015-08-08 19:38:36 --> Helper loaded: googleauthenticator_helper
INFO - 2015-08-08 19:38:36 --> Language file loaded: language/english/aauth_lang.php
DEBUG - 2015-08-08 19:38:36 --> Config file loaded: /opt/lampp/htdocs/team/application/config/aauth.php
INFO - 2015-08-08 19:38:36 --> Database Driver Class Initialized
INFO - 2015-08-08 19:38:36 --> Helper loaded: form_helper
INFO - 2015-08-08 19:38:36 --> Form Validation Class Initialized
INFO - 2015-08-08 19:38:36 --> Parser Class Initialized
INFO - 2015-08-08 19:38:36 --> Controller Class Initialized
INFO - 2015-08-08 19:38:36 --> Model Class Initialized
INFO - 2015-08-08 19:38:36 --> Model Class Initialized
INFO - 2015-08-08 19:38:36 --> Model Class Initialized
INFO - 2015-08-08 19:38:36 --> Model Class Initialized
INFO - 2015-08-08 19:38:36 --> Model Class Initialized
DEBUG - 2015-08-08 19:38:36 --> Aauth class already loaded. Second attempt ignored.
INFO - 2015-08-08 19:38:36 --> User Agent Class Initialized
INFO - 2015-08-08 19:38:36 --> Config Class Initialized
INFO - 2015-08-08 19:38:36 --> Hooks Class Initialized
DEBUG - 2015-08-08 19:38:36 --> UTF-8 Support Enabled
INFO - 2015-08-08 19:38:36 --> Utf8 Class Initialized
INFO - 2015-08-08 19:38:36 --> URI Class Initialized
DEBUG - 2015-08-08 19:38:36 --> No URI present. Default controller set.
INFO - 2015-08-08 19:38:36 --> Router Class Initialized
INFO - 2015-08-08 19:38:36 --> Output Class Initialized
INFO - 2015-08-08 19:38:36 --> Security Class Initialized
DEBUG - 2015-08-08 19:38:36 --> Global POST, GET and COOKIE data sanitized
INFO - 2015-08-08 19:38:36 --> Input Class Initialized
INFO - 2015-08-08 19:38:36 --> Language Class Initialized
INFO - 2015-08-08 19:38:36 --> Loader Class Initialized
INFO - 2015-08-08 19:38:36 --> Helper loaded: url_helper
INFO - 2015-08-08 19:38:36 --> Helper loaded: thumb_helper
INFO - 2015-08-08 19:38:36 --> Database Driver Class Initialized
INFO - 2015-08-08 19:38:36 --> Session: Class initialized using 'files' driver.
DEBUG - 2015-08-08 19:38:36 --> Session class already loaded. Second attempt ignored.
INFO - 2015-08-08 19:38:36 --> Email Class Initialized
INFO - 2015-08-08 19:38:36 --> Helper loaded: string_helper
INFO - 2015-08-08 19:38:36 --> Helper loaded: email_helper
INFO - 2015-08-08 19:38:36 --> Helper loaded: language_helper
INFO - 2015-08-08 19:38:36 --> Helper loaded: recaptchalib_helper
INFO - 2015-08-08 19:38:36 --> Helper loaded: googleauthenticator_helper
INFO - 2015-08-08 19:38:36 --> Language file loaded: language/english/aauth_lang.php
DEBUG - 2015-08-08 19:38:36 --> Config file loaded: /opt/lampp/htdocs/team/application/config/aauth.php
INFO - 2015-08-08 19:38:36 --> Database Driver Class Initialized
INFO - 2015-08-08 19:38:36 --> Helper loaded: form_helper
INFO - 2015-08-08 19:38:36 --> Form Validation Class Initialized
INFO - 2015-08-08 19:38:36 --> Parser Class Initialized
INFO - 2015-08-08 19:38:36 --> Controller Class Initialized
INFO - 2015-08-08 19:38:36 --> Model Class Initialized
INFO - 2015-08-08 19:38:36 --> Model Class Initialized
INFO - 2015-08-08 19:38:36 --> Model Class Initialized
INFO - 2015-08-08 19:38:36 --> Model Class Initialized
INFO - 2015-08-08 19:38:36 --> Model Class Initialized
DEBUG - 2015-08-08 19:38:36 --> Aauth class already loaded. Second attempt ignored.
INFO - 2015-08-08 19:38:36 --> User Agent Class Initialized
INFO - 2015-08-08 19:38:36 --> Language file loaded: language/english/pagination_lang.php
INFO - 2015-08-08 19:38:36 --> Pagination Class Initialized
INFO - 2015-08-08 19:38:36 --> File loaded: /opt/lampp/htdocs/team/application/views/layout/header.php
INFO - 2015-08-08 19:38:36 --> File loaded: /opt/lampp/htdocs/team/application/views/index.php
INFO - 2015-08-08 19:38:36 --> File loaded: /opt/lampp/htdocs/team/application/views/layout/footer.php
INFO - 2015-08-08 19:38:36 --> Final output sent to browser
DEBUG - 2015-08-08 19:38:36 --> Total execution time: 0.0481
INFO - 2015-08-08 19:38:36 --> Config Class Initialized
INFO - 2015-08-08 19:38:36 --> Hooks Class Initialized
INFO - 2015-08-08 19:38:36 --> Config Class Initialized
INFO - 2015-08-08 19:38:36 --> Hooks Class Initialized
INFO - 2015-08-08 19:38:36 --> Config Class Initialized
INFO - 2015-08-08 19:38:36 --> Hooks Class Initialized
INFO - 2015-08-08 19:38:36 --> Config Class Initialized
INFO - 2015-08-08 19:38:36 --> Hooks Class Initialized
DEBUG - 2015-08-08 19:38:36 --> UTF-8 Support Enabled
INFO - 2015-08-08 19:38:36 --> Utf8 Class Initialized
INFO - 2015-08-08 19:38:36 --> URI Class Initialized
DEBUG - 2015-08-08 19:38:36 --> UTF-8 Support Enabled
INFO - 2015-08-08 19:38:36 --> Utf8 Class Initialized
DEBUG - 2015-08-08 19:38:36 --> UTF-8 Support Enabled
INFO - 2015-08-08 19:38:36 --> Utf8 Class Initialized
INFO - 2015-08-08 19:38:36 --> URI Class Initialized
DEBUG - 2015-08-08 19:38:36 --> UTF-8 Support Enabled
INFO - 2015-08-08 19:38:36 --> Utf8 Class Initialized
INFO - 2015-08-08 19:38:36 --> Router Class Initialized
INFO - 2015-08-08 19:38:36 --> URI Class Initialized
INFO - 2015-08-08 19:38:36 --> Output Class Initialized
INFO - 2015-08-08 19:38:36 --> Router Class Initialized
INFO - 2015-08-08 19:38:36 --> Security Class Initialized
INFO - 2015-08-08 19:38:36 --> URI Class Initialized
DEBUG - 2015-08-08 19:38:36 --> Global POST, GET and COOKIE data sanitized
INFO - 2015-08-08 19:38:36 --> Input Class Initialized
INFO - 2015-08-08 19:38:36 --> Language Class Initialized
INFO - 2015-08-08 19:38:36 --> Router Class Initialized
INFO - 2015-08-08 19:38:36 --> Output Class Initialized
INFO - 2015-08-08 19:38:36 --> Loader Class Initialized
INFO - 2015-08-08 19:38:36 --> Security Class Initialized
INFO - 2015-08-08 19:38:36 --> Helper loaded: url_helper
INFO - 2015-08-08 19:38:36 --> Helper loaded: thumb_helper
INFO - 2015-08-08 19:38:36 --> Output Class Initialized
INFO - 2015-08-08 19:38:36 --> Security Class Initialized
DEBUG - 2015-08-08 19:38:36 --> Global POST, GET and COOKIE data sanitized
INFO - 2015-08-08 19:38:36 --> Input Class Initialized
INFO - 2015-08-08 19:38:36 --> Language Class Initialized
DEBUG - 2015-08-08 19:38:36 --> Global POST, GET and COOKIE data sanitized
INFO - 2015-08-08 19:38:36 --> Input Class Initialized
INFO - 2015-08-08 19:38:36 --> Language Class Initialized
INFO - 2015-08-08 19:38:36 --> Loader Class Initialized
INFO - 2015-08-08 19:38:36 --> Helper loaded: url_helper
INFO - 2015-08-08 19:38:36 --> Router Class Initialized
INFO - 2015-08-08 19:38:36 --> Helper loaded: thumb_helper
INFO - 2015-08-08 19:38:36 --> Loader Class Initialized
INFO - 2015-08-08 19:38:36 --> Helper loaded: url_helper
INFO - 2015-08-08 19:38:36 --> Helper loaded: thumb_helper
INFO - 2015-08-08 19:38:36 --> Output Class Initialized
INFO - 2015-08-08 19:38:36 --> Security Class Initialized
DEBUG - 2015-08-08 19:38:36 --> Global POST, GET and COOKIE data sanitized
INFO - 2015-08-08 19:38:36 --> Input Class Initialized
INFO - 2015-08-08 19:38:36 --> Language Class Initialized
INFO - 2015-08-08 19:38:36 --> Loader Class Initialized
INFO - 2015-08-08 19:38:36 --> Database Driver Class Initialized
INFO - 2015-08-08 19:38:36 --> Database Driver Class Initialized
INFO - 2015-08-08 19:38:36 --> Session: Class initialized using 'files' driver.
INFO - 2015-08-08 19:38:36 --> Database Driver Class Initialized
INFO - 2015-08-08 19:38:36 --> Helper loaded: url_helper
INFO - 2015-08-08 19:38:36 --> Helper loaded: thumb_helper
DEBUG - 2015-08-08 19:38:36 --> Session class already loaded. Second attempt ignored.
INFO - 2015-08-08 19:38:36 --> Database Driver Class Initialized
INFO - 2015-08-08 19:38:36 --> Email Class Initialized
INFO - 2015-08-08 19:38:36 --> Helper loaded: string_helper
INFO - 2015-08-08 19:38:36 --> Helper loaded: email_helper
INFO - 2015-08-08 19:38:36 --> Helper loaded: language_helper
INFO - 2015-08-08 19:38:36 --> Helper loaded: recaptchalib_helper
INFO - 2015-08-08 19:38:36 --> Helper loaded: googleauthenticator_helper
INFO - 2015-08-08 19:38:36 --> Language file loaded: language/english/aauth_lang.php
DEBUG - 2015-08-08 19:38:36 --> Config file loaded: /opt/lampp/htdocs/team/application/config/aauth.php
INFO - 2015-08-08 19:38:36 --> Database Driver Class Initialized
INFO - 2015-08-08 19:38:36 --> Helper loaded: form_helper
INFO - 2015-08-08 19:38:36 --> Form Validation Class Initialized
INFO - 2015-08-08 19:38:36 --> Parser Class Initialized
INFO - 2015-08-08 19:38:36 --> Controller Class Initialized
INFO - 2015-08-08 19:38:36 --> File loaded: /opt/lampp/htdocs/team/application/views/layout/header.php
INFO - 2015-08-08 19:38:36 --> File loaded: /opt/lampp/htdocs/team/application/views/errors/html/custom.php
ERROR - 2015-08-08 19:38:36 --> Severity: Warning --> Invalid argument supplied for foreach() /opt/lampp/htdocs/team/application/views/layout/footer.php 171
ERROR - 2015-08-08 19:38:36 --> Severity: Warning --> Invalid argument supplied for foreach() /opt/lampp/htdocs/team/application/views/layout/footer.php 178
ERROR - 2015-08-08 19:38:36 --> Severity: Warning --> Invalid argument supplied for foreach() /opt/lampp/htdocs/team/application/views/layout/footer.php 187
INFO - 2015-08-08 19:38:36 --> File loaded: /opt/lampp/htdocs/team/application/views/layout/footer.php
INFO - 2015-08-08 19:38:36 --> Final output sent to browser
DEBUG - 2015-08-08 19:38:36 --> Total execution time: 0.0579
INFO - 2015-08-08 19:38:36 --> Session: Class initialized using 'files' driver.
DEBUG - 2015-08-08 19:38:36 --> Session class already loaded. Second attempt ignored.
INFO - 2015-08-08 19:38:36 --> Email Class Initialized
INFO - 2015-08-08 19:38:36 --> Helper loaded: string_helper
INFO - 2015-08-08 19:38:36 --> Helper loaded: email_helper
INFO - 2015-08-08 19:38:36 --> Helper loaded: language_helper
INFO - 2015-08-08 19:38:36 --> Helper loaded: recaptchalib_helper
INFO - 2015-08-08 19:38:36 --> Helper loaded: googleauthenticator_helper
INFO - 2015-08-08 19:38:36 --> Language file loaded: language/english/aauth_lang.php
DEBUG - 2015-08-08 19:38:36 --> Config file loaded: /opt/lampp/htdocs/team/application/config/aauth.php
INFO - 2015-08-08 19:38:36 --> Database Driver Class Initialized
INFO - 2015-08-08 19:38:36 --> Helper loaded: form_helper
INFO - 2015-08-08 19:38:36 --> Form Validation Class Initialized
INFO - 2015-08-08 19:38:36 --> Parser Class Initialized
INFO - 2015-08-08 19:38:36 --> Controller Class Initialized
INFO - 2015-08-08 19:38:36 --> File loaded: /opt/lampp/htdocs/team/application/views/layout/header.php
INFO - 2015-08-08 19:38:36 --> File loaded: /opt/lampp/htdocs/team/application/views/errors/html/custom.php
ERROR - 2015-08-08 19:38:36 --> Severity: Warning --> Invalid argument supplied for foreach() /opt/lampp/htdocs/team/application/views/layout/footer.php 171
ERROR - 2015-08-08 19:38:36 --> Severity: Warning --> Invalid argument supplied for foreach() /opt/lampp/htdocs/team/application/views/layout/footer.php 178
ERROR - 2015-08-08 19:38:36 --> Severity: Warning --> Invalid argument supplied for foreach() /opt/lampp/htdocs/team/application/views/layout/footer.php 187
INFO - 2015-08-08 19:38:36 --> File loaded: /opt/lampp/htdocs/team/application/views/layout/footer.php
INFO - 2015-08-08 19:38:36 --> Final output sent to browser
DEBUG - 2015-08-08 19:38:36 --> Total execution time: 0.0936
INFO - 2015-08-08 19:38:36 --> Session: Class initialized using 'files' driver.
DEBUG - 2015-08-08 19:38:36 --> Session class already loaded. Second attempt ignored.
INFO - 2015-08-08 19:38:36 --> Email Class Initialized
INFO - 2015-08-08 19:38:36 --> Helper loaded: string_helper
INFO - 2015-08-08 19:38:36 --> Helper loaded: email_helper
INFO - 2015-08-08 19:38:36 --> Helper loaded: language_helper
INFO - 2015-08-08 19:38:36 --> Helper loaded: recaptchalib_helper
INFO - 2015-08-08 19:38:36 --> Helper loaded: googleauthenticator_helper
INFO - 2015-08-08 19:38:36 --> Language file loaded: language/english/aauth_lang.php
DEBUG - 2015-08-08 19:38:36 --> Config file loaded: /opt/lampp/htdocs/team/application/config/aauth.php
INFO - 2015-08-08 19:38:36 --> Database Driver Class Initialized
INFO - 2015-08-08 19:38:36 --> Helper loaded: form_helper
INFO - 2015-08-08 19:38:36 --> Form Validation Class Initialized
INFO - 2015-08-08 19:38:36 --> Parser Class Initialized
INFO - 2015-08-08 19:38:36 --> Controller Class Initialized
INFO - 2015-08-08 19:38:36 --> File loaded: /opt/lampp/htdocs/team/application/views/layout/header.php
INFO - 2015-08-08 19:38:36 --> File loaded: /opt/lampp/htdocs/team/application/views/errors/html/custom.php
ERROR - 2015-08-08 19:38:36 --> Severity: Warning --> Invalid argument supplied for foreach() /opt/lampp/htdocs/team/application/views/layout/footer.php 171
ERROR - 2015-08-08 19:38:36 --> Severity: Warning --> Invalid argument supplied for foreach() /opt/lampp/htdocs/team/application/views/layout/footer.php 178
ERROR - 2015-08-08 19:38:36 --> Severity: Warning --> Invalid argument supplied for foreach() /opt/lampp/htdocs/team/application/views/layout/footer.php 187
INFO - 2015-08-08 19:38:36 --> File loaded: /opt/lampp/htdocs/team/application/views/layout/footer.php
INFO - 2015-08-08 19:38:36 --> Final output sent to browser
DEBUG - 2015-08-08 19:38:36 --> Total execution time: 0.1070
INFO - 2015-08-08 19:38:36 --> Session: Class initialized using 'files' driver.
DEBUG - 2015-08-08 19:38:36 --> Session class already loaded. Second attempt ignored.
INFO - 2015-08-08 19:38:36 --> Email Class Initialized
INFO - 2015-08-08 19:38:36 --> Helper loaded: string_helper
INFO - 2015-08-08 19:38:36 --> Helper loaded: email_helper
INFO - 2015-08-08 19:38:36 --> Helper loaded: language_helper
INFO - 2015-08-08 19:38:36 --> Helper loaded: recaptchalib_helper
INFO - 2015-08-08 19:38:36 --> Helper loaded: googleauthenticator_helper
INFO - 2015-08-08 19:38:36 --> Language file loaded: language/english/aauth_lang.php
DEBUG - 2015-08-08 19:38:36 --> Config file loaded: /opt/lampp/htdocs/team/application/config/aauth.php
INFO - 2015-08-08 19:38:36 --> Database Driver Class Initialized
INFO - 2015-08-08 19:38:36 --> Helper loaded: form_helper
INFO - 2015-08-08 19:38:36 --> Form Validation Class Initialized
INFO - 2015-08-08 19:38:36 --> Parser Class Initialized
INFO - 2015-08-08 19:38:36 --> Controller Class Initialized
INFO - 2015-08-08 19:38:36 --> File loaded: /opt/lampp/htdocs/team/application/views/layout/header.php
INFO - 2015-08-08 19:38:36 --> File loaded: /opt/lampp/htdocs/team/application/views/errors/html/custom.php
ERROR - 2015-08-08 19:38:36 --> Severity: Warning --> Invalid argument supplied for foreach() /opt/lampp/htdocs/team/application/views/layout/footer.php 171
ERROR - 2015-08-08 19:38:36 --> Severity: Warning --> Invalid argument supplied for foreach() /opt/lampp/htdocs/team/application/views/layout/footer.php 178
ERROR - 2015-08-08 19:38:36 --> Severity: Warning --> Invalid argument supplied for foreach() /opt/lampp/htdocs/team/application/views/layout/footer.php 187
INFO - 2015-08-08 19:38:36 --> File loaded: /opt/lampp/htdocs/team/application/views/layout/footer.php
INFO - 2015-08-08 19:38:36 --> Final output sent to browser
DEBUG - 2015-08-08 19:38:36 --> Total execution time: 0.1192
